<?xml version="1.0" encoding="UTF-8" standalone="no"?>
<svg width="30px" height="18px" viewBox="0 0 30 18" version="1.1" xmlns="http://www.w3.org/2000/svg" xmlns:xlink="http://www.w3.org/1999/xlink">
    <!-- Generator: Sketch 46.2 (44496) - http://www.bohemiancoding.com/sketch -->
    <title>arrow-down-gray copy</title>
    <desc>Created with Sketch.</desc>
    <defs></defs>
    <g id="Page-1" stroke="none" stroke-width="1" fill="none" fill-rule="evenodd">
        <g id="arrow-down-gray-copy" transform="translate(15.000000, 9.000000) scale(1, -1) translate(-15.000000, -9.000000) " fill-rule="nonzero" fill="#ADB5BD">
            <path d="M14.9948396,17.0950553 C14.4573617,17.0950553 13.9199502,16.8898341 13.5101715,16.4802544 L0.615215708,3.58516593 C-0.205071903,2.76487832 -0.205071903,1.43492257 0.615215708,0.614966814 C1.43517146,-0.204988938 2.76486173,-0.204988938 3.58521571,0.614966814 L14.9948396,12.0252544 L26.4045299,0.615365044 C27.2248175,-0.204590708 28.554375,-0.204590708 29.3742644,0.615365044 C30.1949502,1.4353208 30.1949502,2.76527655 29.3742644,3.58556416 L16.4795077,16.4806527 C16.0695299,16.8902987 15.5321184,17.0950553 14.9948396,17.0950553 Z" id="Shape"></path>
        </g>
    </g>
</svg>