<?xml version="1.0" encoding="UTF-8" standalone="no"?>
<svg width="8px" height="9px" viewBox="0 0 8 9" version="1.1" xmlns="http://www.w3.org/2000/svg" xmlns:xlink="http://www.w3.org/1999/xlink">
    <!-- Generator: Sketch 46.2 (44496) - http://www.bohemiancoding.com/sketch -->
    <title>assigned-blue</title>
    <desc>Created with Sketch.</desc>
    <defs></defs>
    <g id="Page-1" stroke="none" stroke-width="1" fill="none" fill-rule="evenodd">
        <g id="assigned-blue" fill-rule="nonzero" fill="#868E96">
            <path d="M7.78062157,4.1205175 L0.65813528,0.0582473 C0.36563071,-0.1080022 0,0.1016167 0,0.4341157 L0,8.5658843 C0,8.8983833 0.36563071,9.1080022 0.65813528,8.9417527 L7.78062157,4.8794825 C8.07312614,4.7059325 8.07312614,4.286767 7.78062157,4.1205175 Z" id="Shape"></path>
        </g>
    </g>
</svg>