<?xml version="1.0" encoding="utf-8"?>
<!-- Generator: Adobe Illustrator 22.1.0, SVG Export Plug-In . SVG Version: 6.00 Build 0)  -->
<svg version="1.1" xmlns="http://www.w3.org/2000/svg" xmlns:xlink="http://www.w3.org/1999/xlink" x="0px" y="0px"
	 viewBox="0 0 24 24" style="enable-background:new 0 0 24 24;" xml:space="preserve">
<style type="text/css">
	.st0{fill:#868E95;}
</style>
<g>
	<path class="st0" d="M16.4,6l3.2,4.7c0.5,0.8,0.5,1.9,0,2.7L16.4,18h-4.4l3.2-4.7c0.5-0.8,0.5-1.9,0-2.7
		L12.1,6H16.4z M4,18V6h4.4l3.2,4.7c0.5,0.8,0.5,1.9,0,2.7L8.4,18H4z"/>
</g>
</svg>
