<?xml version="1.0" encoding="UTF-8" standalone="no"?>
<svg width="112px" height="100px" viewBox="0 0 112 100" version="1.1" xmlns="http://www.w3.org/2000/svg" xmlns:xlink="http://www.w3.org/1999/xlink">
    <!-- Generator: Sketch 47 (45396) - http://www.bohemiancoding.com/sketch -->
    <title>checkmark-white</title>
    <desc>Created with Sketch.</desc>
    <defs></defs>
    <g id="Page-1" stroke="none" stroke-width="1" fill="none" fill-rule="evenodd">
        <g id="Artboard-2" transform="translate(-320.000000, -161.000000)" fill-rule="nonzero" fill="#40C057">
            <g id="checkmark-white" transform="translate(320.000000, 161.000000)">
                <polygon id="Shape" points="44.324 100 0 57.9633896 15.4245 40.7213898 41.993 65.9123662 94.3775 0 112 14.8457767"></polygon>
            </g>
        </g>
    </g>
</svg>