<?xml version="1.0" encoding="UTF-8" standalone="no"?>
<svg width="21px" height="21px" viewBox="0 0 21 21" version="1.1" xmlns="http://www.w3.org/2000/svg" xmlns:xlink="http://www.w3.org/1999/xlink">
    <!-- Generator: Sketch 46.2 (44496) - http://www.bohemiancoding.com/sketch -->
    <title>Shape</title>
    <desc>Created with Sketch.</desc>
    <defs></defs>
    <g id="Page-1" stroke="none" stroke-width="1" fill="none" fill-rule="evenodd">
        <g id="close" fill-rule="nonzero" fill="#868E96">
            <path d="M12.3572158,10.5002189 L20.615205,2.24188538 C21.128265,1.7292418 21.128265,0.897454606 20.615205,0.384811024 C20.102145,-0.128270341 19.2712681,-0.128270341 18.7582081,0.384811024 L10.5002189,8.64314453 L2.24179192,0.384811024 C1.72873194,-0.128270341 0.897854954,-0.128270341 0.38479498,0.384811024 C-0.128264993,0.897454606 -0.128264993,1.7292418 0.38479498,2.24188538 L8.64322195,10.5002189 L0.38479498,18.7585524 C-0.128264993,19.271196 -0.128264993,20.1029832 0.38479498,20.6156268 C0.641324967,20.8717297 0.97752809,21 1.31329345,21 C1.64905881,21 1.98526193,20.8717297 2.24179192,20.615189 L10.5002189,12.3568555 L18.7582081,20.615189 C19.0147381,20.8717297 19.3509412,21 19.6867066,21 C20.0224719,21 20.358675,20.8717297 20.615205,20.615189 C21.128265,20.1025454 21.128265,19.2707582 20.615205,18.7581146 L12.3572158,10.5002189 Z" id="Shape"></path>
        </g>
    </g>
</svg>