<?xml version="1.0" encoding="UTF-8" standalone="no"?>
<svg width="19px" height="18px" viewBox="0 0 19 18" version="1.1" xmlns="http://www.w3.org/2000/svg" xmlns:xlink="http://www.w3.org/1999/xlink">
    <!-- Generator: Sketch 46.2 (44496) - http://www.bohemiancoding.com/sketch -->
    <title>collaboration-assigned-blue copy 2</title>
    <desc>Created with Sketch.</desc>
    <defs></defs>
    <g id="Page-1" stroke="none" stroke-width="1" fill="none" fill-rule="evenodd">
        <g id="collaboration-assigned-blue-copy-2" fill-rule="nonzero">
            <g id="collaboration-bordered-gray" fill="#ADB5BD">
                <path d="M5.7629747,17.178474 L9.42659014,13.1437365 L9.64670495,13.1428199 L17.135807,13.1116396 C18.0533505,13.1116396 18.7975739,12.3665371 18.7975739,11.4473191 L18.7975739,2.16432051 C18.7975739,1.24505028 18.0532984,0.5 17.1364094,0.499998916 L2.16176686,0.531176051 C1.24422336,0.531176051 0.5,1.27627855 0.5,2.19549656 L0.5,11.4784951 C0.5,12.3977131 1.24422337,13.1428156 2.16176686,13.1428156 L5.7629747,13.1428156 L5.7629747,17.178474 Z" id="Shape"></path>
            </g>
            <g id="checkmark-white" transform="translate(6.250000, 3.685739)" fill="#FFFFFF">
                <polygon id="Shape" points="2.78261719 6.25 0 3.62271187 0.968334961 2.54508684 2.6362793 4.11952289 5.92492676 0 7.03125 0.927861055"></polygon>
            </g>
        </g>
    </g>
</svg>