<?xml version="1.0" encoding="UTF-8" standalone="no"?>
<svg width="19px" height="18px" viewBox="0 0 19 18" version="1.1" xmlns="http://www.w3.org/2000/svg" xmlns:xlink="http://www.w3.org/1999/xlink">
    <!-- Generator: Sketch 46.2 (44496) - http://www.bohemiancoding.com/sketch -->
    <title>collaboration-assigned-blue</title>
    <desc>Created with Sketch.</desc>
    <defs></defs>
    <g id="Page-1" stroke="none" stroke-width="1" fill="none" fill-rule="evenodd">
        <g id="collaboration-assigned-blue" fill-rule="nonzero">
            <g id="collaboration-bordered-gray" fill="#228AE6">
                <path d="M5.7629747,17.178474 L9.42659014,13.1437365 L9.64670495,13.1428199 L17.135807,13.1116396 C18.0533505,13.1116396 18.7975739,12.3665371 18.7975739,11.4473191 L18.7975739,2.16432051 C18.7975739,1.24505028 18.0532984,0.5 17.1364094,0.499998916 L2.16176686,0.531176051 C1.24422336,0.531176051 0.5,1.27627855 0.5,2.19549656 L0.5,11.4784951 C0.5,12.3977131 1.24422337,13.1428156 2.16176686,13.1428156 L5.7629747,13.1428156 L5.7629747,17.178474 Z" id="Shape"></path>
            </g>
            <path d="M12.3628885,6.7540391 L7.91133455,4.12108619 C7.72851919,4.01333189 7.5,4.14919602 7.5,4.36470462 L7.5,9.63529542 C7.5,9.850804 7.72851919,9.98666808 7.91133455,9.87891383 L12.3628885,7.2459609 C12.5457038,7.13347478 12.5457038,6.8617934 12.3628885,6.7540391 Z" id="Shape" fill="#FFFFFF"></path>
        </g>
    </g>
</svg>