<?xml version="1.0" encoding="UTF-8" standalone="no"?>
<svg width="25px" height="7px" viewBox="0 0 25 7" version="1.1" xmlns="http://www.w3.org/2000/svg" xmlns:xlink="http://www.w3.org/1999/xlink">
    <!-- Generator: Sketch 46.2 (44496) - http://www.bohemiancoding.com/sketch -->
    <title>dots-menu-bordered-gray</title>
    <desc>Created with Sketch.</desc>
    <defs></defs>
    <g id="Page-1" stroke="none" stroke-width="1" fill="none" fill-rule="evenodd">
        <g id="dots-menu-bordered-gray" transform="translate(1.000000, 1.000000)" stroke="#868E96">
            <circle id="Oval" cx="2.5" cy="2.5" r="2.5"></circle>
            <circle id="Oval-Copy" cx="11.5" cy="2.5" r="2.5"></circle>
            <circle id="Oval-Copy-2" cx="20.5" cy="2.5" r="2.5"></circle>
        </g>
    </g>
</svg>