<?xml version="1.0" encoding="UTF-8" standalone="no"?>
<svg width="16px" height="12px" viewBox="0 0 16 12" version="1.1" xmlns="http://www.w3.org/2000/svg" xmlns:xlink="http://www.w3.org/1999/xlink">
    <!-- Generator: Sketch 46.2 (44496) - http://www.bohemiancoding.com/sketch -->
    <title>drag-and-drop</title>
    <desc>Created with Sketch.</desc>
    <defs></defs>
    <g id="Page-1" stroke="none" stroke-width="1" fill="none" fill-rule="evenodd">
        <g id="drag-and-drop" fill-rule="nonzero" fill="#868E96">
            <rect id="Rectangle-4" x="0" y="0" width="16" height="2"></rect>
            <rect id="Rectangle-4-Copy" x="0" y="5" width="16" height="2"></rect>
            <rect id="Rectangle-4-Copy-2" x="0" y="10" width="16" height="2"></rect>
        </g>
    </g>
</svg>