<?xml version="1.0" encoding="UTF-8" standalone="no"?>
<svg width="23px" height="18px" viewBox="0 0 23 18" version="1.1" xmlns="http://www.w3.org/2000/svg" xmlns:xlink="http://www.w3.org/1999/xlink">
    <!-- Generator: Sketch 46.2 (44496) - http://www.bohemiancoding.com/sketch -->
    <title>Shape</title>
    <desc>Created with Sketch.</desc>
    <defs></defs>
    <g id="Page-1" stroke="none" stroke-width="1" fill="none" fill-rule="evenodd">
        <g id="Artboard-Copy-4" transform="translate(-646.000000, -422.000000)" fill-rule="nonzero" fill="#FFFFFF">
            <g id="Group-4" transform="translate(448.000000, 404.000000)">
                <g id="Group-6">
                    <path d="M218.049172,24.7881094 C218.081471,24.5273438 218.125,24.2695312 218.125,24 C218.125,20.6865 215.55183,18 212.375,18 C210.496727,18 208.84441,18.953625 207.795754,20.4082031 C207.418141,20.313 207.029297,20.25 206.625,20.25 C203.845459,20.25 201.59375,22.5996094 201.59375,25.5 C201.59375,25.5820312 201.613426,25.6552969 201.616211,25.7373281 C199.531566,26.3774531 198,28.3666875 198,30.75 C198,33.6503906 200.251709,36 203.03125,36 L215.25,36 C218.42683,36 221,33.3149531 221,30 C221,27.7529063 219.802563,25.8164062 218.049172,24.7881094 Z M210.138889,33.4285714 L205.666667,28.9285714 L208.648148,28.9285714 L208.648148,24.4285714 L211.62963,24.4285714 L211.62963,28.9285714 L214.611111,28.9285714 L210.138889,33.4285714 Z" id="Shape"></path>
                </g>
            </g>
        </g>
    </g>
</svg>