<?xml version="1.0" encoding="UTF-8" standalone="no"?>
<svg width="14px" height="14px" viewBox="0 0 14 14" version="1.1" xmlns="http://www.w3.org/2000/svg" xmlns:xlink="http://www.w3.org/1999/xlink">
    <!-- Generator: Sketch 48.2 (47327) - http://www.bohemiancoding.com/sketch -->
    <title>contract</title>
    <desc>Created with Sketch.</desc>
    <defs></defs>
    <g id="Artboard-Copy" stroke="none" stroke-width="1" fill="none" fill-rule="evenodd" transform="translate(-1292.000000, -64.000000)">
        <g id="Group-3" transform="translate(1277.000000, 40.000000)" fill="#868E96" fill-rule="nonzero">
            <g id="contract" transform="translate(15.000000, 24.000000)">
                <path d="M13.6392866,4.40581641 C13.1595066,3.92604297 12.3788148,3.92607031 11.8988708,4.40592578 C11.7512588,4.55366406 10.80879,5.49683203 10.664815,5.64093359 L10.664815,2.39055469 C10.664815,2.06188281 10.5368098,1.75289844 10.3043716,1.52050391 L9.14423112,0.360390625 C8.91182019,0.12796875 8.60278667,0 8.2740916,0 L1.23055557,0 C0.55202723,0 0,0.551988281 0,1.23046875 L0,12.7695312 C0,13.4480117 0.55202723,14 1.23055557,14 L9.4342594,14 C10.1127877,14 10.664815,13.4480117 10.664815,12.7695312 L10.664815,9.12272266 L13.6392592,6.14597266 C14.1201877,5.66510547 14.1202971,4.88673828 13.6392866,4.40581641 Z M8.20373117,0.8203125 C8.28122883,0.8203125 8.43056358,0.806886719 8.56414723,0.940433594 L9.72431502,2.10054687 C9.85448045,2.23073047 9.84447194,2.37338281 9.84447194,2.4609375 L8.20373117,2.4609375 L8.20373117,0.8203125 Z M9.84444459,12.7695312 C9.84444459,12.9956914 9.66046286,13.1796875 9.4342594,13.1796875 L1.23055557,13.1796875 C1.00437946,13.1796875 0.820370382,12.9956914 0.820370382,12.7695312 L0.820370382,1.23046875 C0.820370382,1.00430859 1.00437946,0.8203125 1.23055557,0.8203125 L7.38333344,0.8203125 L7.38333344,2.87109375 C7.38333344,3.09760937 7.56698703,3.28125 7.79351863,3.28125 L9.84444459,3.28125 L9.84444459,6.46195703 C9.84444459,6.46195703 8.63428889,7.67306641 8.6342342,7.67309375 L8.05442376,8.25289062 C8.00941277,8.29789844 7.97544944,8.35280469 7.95532302,8.41320703 L7.37521178,10.1533633 C7.32607159,10.3007461 7.36443758,10.46325 7.47431252,10.5730898 C7.58432419,10.6830937 7.74689425,10.7212656 7.8940687,10.6721836 L9.63434773,10.0921406 C9.69475434,10.0720156 9.74966446,10.038082 9.79467545,9.99304687 L9.84444459,9.94328125 L9.84444459,12.7695312 Z M8.92453593,8.54292578 L9.50461983,9.12296875 L9.28303779,9.34453516 L8.41292562,9.63454297 L8.70295389,8.76446484 L8.92453593,8.54292578 Z M10.0845943,8.54278906 L9.50451045,7.96274609 C9.81340724,7.653625 11.1853126,6.28064062 11.4762707,5.98945703 L12.0563546,6.5695 L10.0845943,8.54278906 Z M13.0590659,5.56603906 L12.6362197,5.98921094 L12.0561358,5.40916797 L12.4791188,4.98585937 C12.6391457,4.82592578 12.8993125,4.82595312 13.05923,4.98585937 C13.2191202,5.14582031 13.2199679,5.40512109 13.0590659,5.56603906 Z" id="Shape"></path>
            </g>
        </g>
    </g>
</svg>