<?xml version="1.0" encoding="UTF-8" standalone="no"?>
<svg width="16px" height="16px" viewBox="0 0 16 16" version="1.1" xmlns="http://www.w3.org/2000/svg" xmlns:xlink="http://www.w3.org/1999/xlink">
    <!-- Generator: Sketch 48.2 (47327) - http://www.bohemiancoding.com/sketch -->
    <title>info-blue-4</title>
    <desc>Created with Sketch.</desc>
    <defs></defs>
    <g id="Symbols" stroke="none" stroke-width="1" fill="none" fill-rule="evenodd">
        <g id="info-blue-4" fill-rule="nonzero">
            <circle id="Oval" fill="#ADB5BD" cx="8" cy="8" r="8"></circle>
            <path d="M8,3 C7.44858972,3 7,3.4488 7,4.00045 C7,4.5516 7.44858972,5 8,5 C8.55141028,5 9,4.5516 9,4.00045 C9,3.4488 8.55141028,3 8,3 Z" id="Shape" fill="#FFFFFF"></path>
            <path d="M8,7 C7.44773333,7 7,7.3358 7,7.75 L7,12.25 C7,12.6642 7.44773333,13 8,13 C8.55226667,13 9,12.6642 9,12.25 L9,7.75 C9,7.3358 8.55226667,7 8,7 Z" id="Shape" fill="#FFFFFF"></path>
        </g>
    </g>
</svg>