<?xml version="1.0" encoding="UTF-8" standalone="no"?>
<svg width="14px" height="11px" viewBox="0 0 14 11" version="1.1" xmlns="http://www.w3.org/2000/svg" xmlns:xlink="http://www.w3.org/1999/xlink">
    <!-- Generator: Sketch 43.2 (39069) - http://www.bohemiancoding.com/sketch -->
    <title>listing-option</title>
    <desc>Created with Sketch.</desc>
    <defs></defs>
    <g id="Symbols" stroke="none" stroke-width="1" fill="none" fill-rule="evenodd">
        <g id="tasks-header-/-list" transform="translate(-47.000000, -8.000000)" fill-rule="nonzero" fill="#868E96">
            <g id="Group-2">
                <g id="listing-option" transform="translate(47.000000, 8.000000)">
                    <path d="M1.74871484,3.01484615 L0.249785156,3.01484615 C0.182136719,3.01484615 0.12359375,3.03941191 0.07415625,3.08878908 C0.0246914063,3.13819355 0,3.19666005 0,3.26421588 L0,4.76046154 C0,4.82796278 0.0246914063,4.88653846 0.07415625,4.93580645 C0.123621094,4.98501985 0.182136719,5.00983127 0.249785156,5.00983127 L1.74871484,5.00983127 C1.81636328,5.00983127 1.87490625,4.98512903 1.92434375,4.93580645 C1.97380859,4.88642928 1.9985,4.82796278 1.9985,4.76046154 L1.9985,3.26421588 C1.9985,3.19666005 1.97378125,3.13819355 1.92434375,3.08878908 C1.87490625,3.0394938 1.81636328,3.01484615 1.74871484,3.01484615 Z" id="Shape"></path>
                    <path d="M1.74871484,8.99985608 L0.249785156,8.99985608 C0.182136719,8.99985608 0.12359375,9.02431266 0.07415625,9.07374442 C0.0246914063,9.12312159 0,9.1815335 0,9.24911663 L0,10.7454442 C0,10.8128908 0.0246914063,10.8712481 0.07415625,10.9206799 C0.123621094,10.9701663 0.182136719,10.9947593 0.249785156,10.9947593 L1.74871484,10.9947593 C1.81636328,10.9947593 1.87490625,10.9701117 1.92434375,10.9206799 C1.97380859,10.8713573 1.9985,10.8128908 1.9985,10.7454442 L1.9985,9.24911663 C1.9985,9.1815062 1.97378125,9.12312159 1.92434375,9.07371712 C1.87490625,9.02450372 1.81636328,8.99985608 1.74871484,8.99985608 Z" id="Shape"></path>
                    <path d="M1.74871484,6.00720099 L0.249785156,6.00720099 C0.182136719,6.00720099 0.12359375,6.0320397 0.07415625,6.0812804 C0.02471875,6.13052109 0,6.18917866 0,6.25662531 L0,7.75281638 C0,7.82045409 0.0246914063,7.8789206 0.07415625,7.92824318 C0.123621094,7.97759305 0.182136719,8.00213151 0.249785156,8.00213151 L1.74871484,8.00213151 C1.81636328,8.00213151 1.87490625,7.97767494 1.92434375,7.92824318 C1.97380859,7.8789206 1.9985,7.82045409 1.9985,7.75281638 L1.9985,6.25662531 C1.9985,6.18917866 1.97378125,6.13071216 1.92434375,6.0812804 C1.87490625,6.03195782 1.81636328,6.00720099 1.74871484,6.00720099 Z" id="Shape"></path>
                    <path d="M1.74871484,0.0223002481 L0.249785156,0.0223002481 C0.182136719,0.0223002481 0.12359375,0.0469478908 0.07415625,0.096325062 C0.02471875,0.145702233 0,0.204141439 0,0.271669975 L0,1.76791563 C0,1.83547146 0.0246914063,1.89388337 0.07415625,1.94326055 C0.123621094,1.99263772 0.182136719,2.01728536 0.249785156,2.01728536 L1.74871484,2.01728536 C1.81636328,2.01728536 1.87490625,1.9927196 1.92434375,1.94326055 C1.97380859,1.89388337 1.9985,1.83547146 1.9985,1.76791563 L1.9985,0.271669975 C1.9985,0.204114144 1.97378125,0.145702233 1.92434375,0.096325062 C1.87490625,0.0470843672 1.81636328,0.0223002481 1.74871484,0.0223002481 Z" id="Shape"></path>
                    <path d="M13.7399609,8.99985608 L3.24764453,8.99985608 C3.17999609,8.99985608 3.12145313,9.02431266 3.07201563,9.07374442 C3.02255078,9.12314888 2.99785938,9.1815335 2.99785938,9.24914392 L2.99785938,10.7454715 C2.99785938,10.8129181 3.02255078,10.8712754 3.07201563,10.9207072 C3.12148047,10.9701935 3.17991406,10.9947866 3.24764453,10.9947866 L13.7399609,10.9947866 C13.8077187,10.9947866 13.8661797,10.970139 13.9156992,10.9207072 C13.9651914,10.8712754 13.9898008,10.8129181 13.9898008,10.7454715 L13.9898008,9.24914392 C13.9898008,9.1815335 13.9651094,9.12314888 13.9156992,9.07374442 C13.8661797,9.02450372 13.8076914,8.99985608 13.7399609,8.99985608 Z" id="Shape"></path>
                    <path d="M13.7399609,6.00720099 L3.24764453,6.00720099 C3.17999609,6.00720099 3.12145313,6.0320397 3.07201563,6.0812804 C3.02257813,6.13052109 2.99785938,6.18917866 2.99785938,6.25662531 L2.99785938,7.75281638 C2.99785938,7.82045409 3.02255078,7.8789206 3.07201563,7.92824318 C3.12148047,7.97759305 3.17991406,8.00213151 3.24764453,8.00213151 L13.7399609,8.00213151 C13.8077187,8.00213151 13.8661797,7.97767494 13.9156992,7.92824318 C13.9651914,7.8789206 13.9898008,7.82045409 13.9898008,7.75281638 L13.9898008,6.25662531 C13.9898008,6.18917866 13.9651094,6.13071216 13.9156992,6.0812804 C13.8661797,6.0320397 13.8076914,6.00720099 13.7399609,6.00720099 Z" id="Shape"></path>
                    <path d="M13.9156992,0.096325062 C13.8661797,0.047057072 13.8077187,0.0223002481 13.7399609,0.0223002481 L3.24764453,0.0223002481 C3.17999609,0.0223002481 3.12145313,0.0469478908 3.07201563,0.096325062 C3.02257813,0.145702233 2.99785938,0.204114144 2.99785938,0.271669975 L2.99785938,1.76791563 C2.99785938,1.83547146 3.02255078,1.89388337 3.07201563,1.94326055 C3.12148047,1.99263772 3.17991406,2.01728536 3.24764453,2.01728536 L13.7399609,2.01728536 C13.8077187,2.01728536 13.8661797,1.9927196 13.9156992,1.94326055 C13.9651914,1.89388337 13.9898008,1.83547146 13.9898008,1.76791563 L13.9898008,0.271669975 C13.9897734,0.204141439 13.965082,0.145702233 13.9156992,0.096325062 Z" id="Shape"></path>
                    <path d="M13.7399609,3.01484615 L3.24764453,3.01484615 C3.17999609,3.01484615 3.12145313,3.03941191 3.07201563,3.08878908 C3.02255078,3.13819355 2.99785938,3.19666005 2.99785938,3.26421588 L2.99785938,4.76046154 C2.99785938,4.82796278 3.02255078,4.88642928 3.07201563,4.93580645 C3.12148047,4.98501985 3.17991406,5.00983127 3.24764453,5.00983127 L13.7399609,5.00983127 C13.8077187,5.00983127 13.8661797,4.98512903 13.9156992,4.93580645 C13.9651914,4.88642928 13.9898008,4.82796278 13.9898008,4.76046154 L13.9898008,3.26421588 C13.9898008,3.19666005 13.9651094,3.13819355 13.9156992,3.08878908 C13.8661797,3.0394938 13.8076914,3.01484615 13.7399609,3.01484615 Z" id="Shape"></path>
                </g>
            </g>
        </g>
    </g>
</svg>