<?xml version="1.0" encoding="UTF-8" standalone="no"?>
<svg width="107px" height="81px" viewBox="0 0 107 81" version="1.1" xmlns="http://www.w3.org/2000/svg" xmlns:xlink="http://www.w3.org/1999/xlink">
    <!-- Generator: Sketch 42 (36781) - http://www.bohemiancoding.com/sketch -->
    <title>Group</title>
    <desc>Created with Sketch.</desc>
    <defs>
        <filter x="-50%" y="-50%" width="200%" height="200%" filterUnits="objectBoundingBox" id="filter-1">
            <feOffset dx="0" dy="0" in="SourceAlpha" result="shadowOffsetOuter1"></feOffset>
            <feGaussianBlur stdDeviation="2" in="shadowOffsetOuter1" result="shadowBlurOuter1"></feGaussianBlur>
            <feColorMatrix values="0 0 0 0 0.870588235   0 0 0 0 0.88627451   0 0 0 0 0.901960784  0 0 0 0.5 0" type="matrix" in="shadowBlurOuter1" result="shadowMatrixOuter1"></feColorMatrix>
            <feMerge>
                <feMergeNode in="shadowMatrixOuter1"></feMergeNode>
                <feMergeNode in="SourceGraphic"></feMergeNode>
            </feMerge>
        </filter>
    </defs>
    <g id="Review---comments" stroke="none" stroke-width="1" fill="none" fill-rule="evenodd">
        <g id="Empty-field" transform="translate(-1189.000000, -201.000000)" fill-rule="nonzero" fill="#CED4DA">
            <g id="Group-2" filter="url(#filter-1)" transform="translate(1167.000000, 138.000000)">
                <g id="opened-white-box" transform="translate(26.000000, 67.000000)">
                    <g id="Capa_1">
                        <g id="Group">
                            <path d="M49.5686852,18.4398426 L26.853591,12.3312536 C25.9282484,12.0786268 24.9891263,12.633895 24.7425803,13.5543761 C24.4962463,14.4765598 25.0423362,15.4261983 25.9608951,15.6735044 L48.6759893,21.7820933 C48.8258672,21.8218921 48.9757452,21.8408338 49.1222313,21.8408338 C49.8839165,21.8408338 50.5800964,21.3304723 50.7850921,20.5589708 C51.03503,19.6352974 50.4887281,18.6854461 49.5686852,18.4398426 Z" id="Shape"></path>
                            <path d="M54.6503319,21.2181662 C54.8008319,21.0481501 54.9268319,20.8620569 55.1178319,20.7181662 C54.9308319,20.8652723 54.8048319,21.0481501 54.6503319,21.2181662 Z" id="Shape"></path>
                            <path d="M54.5683983,21.2544927 C54.4748983,21.4101566 54.4503983,21.583825 54.3933983,21.7544927 C54.4503983,21.5868258 54.4748983,21.4131574 54.5683983,21.2544927 Z" id="Shape"></path>
                            <path d="M55.5861863,20.3601895 C55.3997618,20.4696895 55.2467982,20.6526895 55.0861863,20.8236895 C55.2467982,20.6566895 55.3997618,20.4736895 55.5861863,20.3601895 Z" id="Shape"></path>
                            <path d="M54.400394,71.6353469 C54.0936424,70.7306152 54.574439,69.7479883 55.4756146,69.4400262 L57.7553704,68.6597988 L57.7553704,23.1973994 L56.5974732,23.6004956 C55.6946017,23.9152682 54.7158373,23.4361924 54.4054818,22.5331633 C54.3348887,22.3273586 54.3141135,22.1179359 54.3211092,21.9121312 C54.3211092,21.9310729 54.3107216,21.9485248 54.3107216,21.9674665 L54.3107216,68.8519825 L18.3858051,59.6482362 L18.3858051,12.6324052 L17.5448351,12.9092945 L14.9394604,15.2621079 L14.9394604,60.9909679 C14.9394604,61.7816239 15.4736788,62.4701224 16.23706,62.667414 L55.6085332,72.7533324 C55.7499315,72.7897259 55.8928137,72.806965 56.034212,72.806965 C55.3136531,72.808242 54.6433362,72.3549184 54.400394,71.6353469 Z" id="Shape"></path>
                            <path d="M56.0306081,72.9343105 C56.2218244,72.9343105 56.4096488,72.8613105 56.5889936,72.7148105 L56.5872976,72.7148105 C56.4028651,72.8653105 56.2150407,72.9343105 56.0306081,72.9343105 Z" id="Shape"></path>
                            <path d="M15.6941499,10.2709329 C15.8530579,10.0814488 16.0116786,9.88799644 16.1941499,9.77093294 C16.0070809,9.8875004 15.8530579,10.0774806 15.6941499,10.2709329 Z" id="Shape"></path>
                            <path d="M87.9389229,10.5198746 C87.9181478,10.483481 87.8821092,10.4628367 87.8596381,10.4298484 C88.0285953,10.6824752 88.1473105,10.9712828 88.1646938,11.2913761 C88.2043362,12.0594723 87.7322313,12.7635073 87.0084925,13.0144315 L85.6574711,13.4849942 L94.6403961,29.2349038 L70.0091113,37.8001662 L63.1249015,27.8336443 C62.5819914,27.0517143 61.5067709,26.8527201 60.7262184,27.3994752 C59.94397,27.9426122 59.7508458,29.0222886 60.29206,29.8076239 L67.9205717,40.8519067 C68.2497944,41.3258746 68.7838009,41.5957405 69.3370985,41.5957405 C69.5249229,41.5957405 69.7161392,41.5663703 69.9005717,41.5006064 L83.7671435,36.6774985 L83.7671435,34.2467901 C83.7671435,33.2901283 84.5392163,32.5167114 85.4904218,32.5167114 C86.4416274,32.5167114 87.2137002,33.2899155 87.2137002,34.2467901 L87.2137002,35.4786385 L97.7320792,31.8214023 C98.2162677,31.6517784 98.6023041,31.2763499 98.7814368,30.7921662 C98.9605696,30.3111749 98.9175353,29.7731458 98.6625096,29.3251429 L87.9389229,10.5198746 Z" id="Shape"></path>
                            <path d="M87.4218758,9.96992711 C87.5598758,10.0674271 87.6738758,10.1854271 87.7958758,10.2949271 C87.6698758,10.1849271 87.5558758,10.0629271 87.4218758,9.96992711 Z" id="Shape"></path>
                            <path d="M86.8687901,9.70857434 C86.9907901,9.74107434 87.0962901,9.81007434 87.2142901,9.85107434 C87.0922901,9.81007434 86.9907901,9.74107434 86.8687901,9.70857434 Z" id="Shape"></path>
                            <path d="M83.7686274,59.7537988 L57.7536745,68.6597988 L57.7536745,71.0766735 C57.7536745,71.6112974 57.5073405,72.1163382 57.0867495,72.4434548 C56.9351756,72.5611487 56.7662184,72.6509621 56.5887816,72.7133207 L86.0466874,62.6274023 C86.7445632,62.3886093 87.2132762,61.729481 87.2132762,60.9907551 L87.2132762,35.4784257 L83.7669315,36.6772857 L83.7669315,59.753586 L83.7686274,59.753586 L83.7686274,59.7537988 Z" id="Shape"></path>
                            <path d="M57.7536745,71.0781633 L57.7536745,68.6612886 L55.4739186,69.441516 C54.572743,69.7494781 54.0919465,70.732105 54.3986981,71.6368367 C54.6433362,72.356621 55.3119572,72.8097318 56.0289122,72.8097318 C56.2133448,72.8097318 56.4011692,72.7803615 56.5856017,72.7163003 L56.5872976,72.7163003 C56.7647345,72.6558571 56.9336916,72.5658309 57.0852655,72.4464344 C57.5073405,72.1161254 57.7536745,71.6110845 57.7536745,71.0781633 Z" id="Shape"></path>
                            <path d="M85.4919058,32.5167114 C84.5407002,32.5167114 83.7686274,33.2899155 83.7686274,34.2467901 L83.7686274,36.6774985 L87.2149722,35.4786385 L87.2149722,34.2467901 C87.2151842,33.2901283 86.4431113,32.5167114 85.4919058,32.5167114 Z" id="Shape"></path>
                            <path d="M87.5804454,10.1099679 C87.7657149,10.2559121 87.9354188,10.4208057 88.0804454,10.6099679 C87.9354188,10.4208057 87.7717894,10.2585717 87.5804454,10.1099679 Z" id="Shape"></path>
                            <path d="M15.6941499,9.98546356 C15.6337323,10.026965 15.5614433,10.0459067 15.5080214,10.0944315 L0.571528908,23.5830437 C-0.0436702355,24.1366093 -0.179768737,25.0551749 0.249301927,25.7645306 C0.569832976,26.2955364 1.13500214,26.5983907 1.72433833,26.5983907 C1.92424625,26.5983907 2.12754604,26.5619971 2.32575803,26.4911254 L11.460469,23.0760875 C12.3531649,22.7421603 12.8061906,21.7474023 12.473788,20.8513965 C12.1411734,19.9534752 11.1486296,19.5037697 10.2578415,19.8323761 L9.61169165,20.0745743 L14.9398844,15.2633848 L14.9398844,11.3794869 C14.9358565,10.791656 15.2479079,10.2968309 15.6941499,9.98546356 Z" id="Shape"></path>
                            <path d="M87.0152762,9.76923032 C87.1912408,9.88723032 87.3606881,10.0332303 87.5152762,10.2407303 C87.3627736,10.0372303 87.1930656,9.89073032 87.0152762,9.76923032 Z" id="Shape"></path>
                            <path d="M18.3824133,11.3796997 L18.3824133,12.633895 L45.7914218,3.60339067 L80.2550814,11.7031983 L55.465439,20.3342245 C55.4482677,20.3393324 55.4361842,20.3550816 55.4190128,20.3618921 C55.6102291,20.2893178 55.8135289,20.2390904 56.0291242,20.2390904 C56.9803298,20.2390904 57.7524026,21.0122945 57.7524026,21.9691691 L57.7524026,23.199102 L85.6559872,13.485207 L84.9460278,12.2414402 C84.4739229,11.412688 84.7598994,10.3540816 85.585394,9.8801137 C85.9902976,9.65004665 86.4486231,9.60513994 86.8675182,9.7104898 C86.8554347,9.70708455 86.846743,9.70006122 86.8348715,9.69665598 L46.1049572,0.124504373 C45.7965096,0.0536326531 45.4742827,0.0674664723 45.1745268,0.164303207 L16.1215246,9.73624198 C16.0990535,9.74326531 16.0835782,9.762207 16.0611071,9.77093294 C16.2489315,9.70006122 16.4471435,9.64983382 16.6591349,9.64983382 C17.6120364,9.64983382 18.3824133,10.4230379 18.3824133,11.3796997 Z" id="Shape"></path>
                            <path d="M54.8485439,20.9352682 C54.9933746,20.7807682 55.1818772,20.6832682 55.3485439,20.5572682 C55.1814316,20.6832682 54.9933746,20.7807682 54.8485439,20.9352682 Z" id="Shape"></path>
                            <path d="M54.3177173,22.0381924 C54.3257173,21.8622243 54.4192173,21.7024863 54.4967173,21.5381924 C54.4192173,21.7050489 54.3297173,21.8645022 54.3177173,22.0381924 Z" id="Shape"></path>
                            <path d="M54.8985953,20.9829242 C54.7480953,21.1486765 54.5735953,21.2983631 54.4675953,21.4829242 C54.5775953,21.2983631 54.7520953,21.1486765 54.8985953,20.9829242 Z" id="Shape"></path>
                            <path d="M18.3824133,12.6321924 L18.3824133,11.3779971 C18.3824133,10.4213353 17.6103405,9.64791837 16.6591349,9.64791837 C16.4471435,9.64791837 16.2489315,9.69814577 16.0611071,9.76901749 C15.9267045,9.8192449 15.8094732,9.90224781 15.692242,9.9835481 C15.246,10.2966181 14.9358565,10.7897405 14.9358565,11.3779971 L14.9358565,15.261895 L17.5412313,12.9090816 L18.3824133,12.6321924 Z" id="Shape"></path>
                            <path d="M56.0306081,20.2373878 C55.8135289,20.2373878 55.6102291,20.2876152 55.4204968,20.3601895 C55.2964818,20.4087143 55.19303,20.4846939 55.0878822,20.557481 C55.0085974,20.6111137 54.920833,20.6526152 54.8500278,20.718379 C54.7690471,20.7962741 54.7156253,20.8931108 54.6518158,20.983137 C54.5880064,21.0731633 54.5157173,21.1544636 54.4690792,21.2547055 C54.4294368,21.3447318 54.4190493,21.4432711 54.3948822,21.5384052 C54.3622355,21.661207 54.3242891,21.7806035 54.3189893,21.9121312 C54.3119936,22.1179359 54.3310728,22.3273586 54.4033619,22.5331633 C54.7152013,23.4361924 55.6939657,23.915481 56.5953533,23.6004956 L57.7532505,23.1973994 L57.7532505,21.9674665 C57.7536745,21.0105918 56.9818137,20.2373878 56.0306081,20.2373878 Z" id="Shape"></path>
                            <path d="M85.586666,9.87819825 C84.7611713,10.3521662 84.4751949,11.4109854 84.9472998,12.2397376 L85.6572591,13.4835044 L87.0082805,13.0129417 C87.7320193,12.7603149 88.2041242,12.0579825 88.1644818,11.2898863 C88.1473105,10.969793 88.0283833,10.682688 87.8594261,10.4283586 C87.7784454,10.3072595 87.6853812,10.2016968 87.5802334,10.1082653 C87.5285075,10.0597405 87.4784775,10.0097259 87.4216638,9.96992711 C87.2959529,9.88351895 87.1579465,9.81945773 87.0150642,9.76923032 C86.9650343,9.75199125 86.922,9.72262099 86.8685782,9.70857434 C86.4498951,9.60130904 85.9915696,9.64621574 85.586666,9.87819825 Z" id="Shape"></path>
                        </g>
                    </g>
                </g>
            </g>
        </g>
    </g>
</svg>