<svg width="24" height="24" viewBox="0 0 24 24" fill="#fff" xmlns="http://www.w3.org/2000/svg">
<path d="M14 19C13.4477 19 13 18.5523 13 18C13 17.4477 13.4477 17 14 17H17V14C17 13.4477 17.4477 13 18 13C18.5523 13 19 13.4477 19 14V17H22C22.5523 17 23 17.4477 23 18C23 18.5523 22.5523 19 22 19H19V22C19 22.5523 18.5523 23 18 23C17.4477 23 17 22.5523 17 22V19H14Z"/>
<path fill-rule="evenodd" clip-rule="evenodd" d="M6.62354 4H2.97561C2.43679 4 2 4.44772 2 5V18C2 18.5523 2.43679 19 2.97561 19H6.62354C7.16236 19 7.59915 18.5523 7.59915 18V5C7.59915 4.44772 7.16236 4 6.62354 4ZM19 20V19H22V17H19V14C19 13.4477 18.5523 13 18 13C17.4477 13 17 13.4477 17 14V17H16.4008V19H17V19.9164C17.1227 19.9702 17.2583 20 17.4008 20H19ZM16.4008 11.4613C16.8638 11.1691 17.4121 11 18 11C19.6569 11 21 12.3431 21 14V15H22V5C22 4.44772 21.5523 4 21 4H17.4008C16.8486 4 16.4008 4.44772 16.4008 5V11.4613ZM14.6829 15V5C14.6829 4.44772 14.2352 4 13.6829 4H10.0838C9.53149 4 9.08378 4.44772 9.08378 5V15C9.08378 15.5523 9.53149 16 10.0838 16H11.7639C12.3132 15.3863 13.1115 15 14 15H14.6829Z"/>
</svg>
