<?xml version="1.0" encoding="UTF-8"?>
<svg width="24px" height="24px" viewBox="0 0 24 24" version="1.1" xmlns="http://www.w3.org/2000/svg" xmlns:xlink="http://www.w3.org/1999/xlink">
    <!-- Generator: Sketch 55.2 (78181) - https://sketchapp.com -->
    <title>Icons/Preview Active</title>
    <desc>Created with Sketch.</desc>
    <defs>
        <path d="M12,9.9104 C12.4793052,9.9104 12.9295549,10.0282655 13.3507625,10.264 C13.7719702,10.4997345 14.1060264,10.8186647 14.3529412,11.2208 C14.599856,11.6229353 14.7233115,12.0527977 14.7233115,12.5104 C14.7233115,12.9680023 14.599856,13.3978647 14.3529412,13.8 C14.1060264,14.2021353 13.7719702,14.5210655 13.3507625,14.7568 C12.9295549,14.9925345 12.4793052,15.1104 12,15.1104 C11.5206948,15.1104 11.0704451,14.9925345 10.6492375,14.7568 C10.2280298,14.5210655 9.89397364,14.2021353 9.64705882,13.8 C9.40014401,13.3978647 9.27668845,12.9680023 9.27668845,12.5104 C9.27668845,12.0527977 9.40014401,11.6229353 9.64705882,11.2208 C9.89397364,10.8186647 10.2280298,10.4997345 10.6492375,10.264 C11.0704451,10.0282655 11.5206948,9.9104 12,9.9104 Z M12,16.8576 C12.8278908,16.8576 13.5904105,16.6634686 14.2875817,16.2752 C14.9847529,15.8869314 15.5366719,15.3600033 15.9433551,14.6944 C16.3500383,14.0287967 16.5533769,13.300804 16.5533769,12.5104 C16.5533769,11.719996 16.3500383,10.9920033 15.9433551,10.3264 C15.5366719,9.66079667 14.9847529,9.13386861 14.2875817,8.7456 C13.5904105,8.35733139 12.8278908,8.1632 12,8.1632 C11.1721092,8.1632 10.4095895,8.35733139 9.7124183,8.7456 C9.01524706,9.13386861 8.4633281,9.66079667 8.05664488,10.3264 C7.64996166,10.9920033 7.44662309,11.719996 7.44662309,12.5104 C7.44662309,13.300804 7.64996166,14.0287967 8.05664488,14.6944 C8.4633281,15.3600033 9.01524706,15.8869314 9.7124183,16.2752 C10.4095895,16.6634686 11.1721092,16.8576 12,16.8576 Z M12,6 C13.4960133,6 14.9193832,6.27733056 16.2701525,6.832 C17.5773486,7.3728027 18.7283901,8.13546174 19.7233115,9.12 C20.718233,10.1045383 21.4771216,11.2346603 22,12.5104 C21.4771216,13.7861397 20.718233,14.9127951 19.7233115,15.8904 C18.7283901,16.8680049 17.5773486,17.6271973 16.2701525,18.168 C14.9193832,18.7226694 13.4960133,19 12,19 C10.5039867,19 9.08061678,18.7226694 7.72984749,18.168 C6.42265142,17.6271973 5.27160991,16.8680049 4.27668845,15.8904 C3.28176699,14.9127951 2.52287843,13.7861397 2,12.5104 C2.52287843,11.2346603 3.28176699,10.1045383 4.27668845,9.12 C5.27160991,8.13546174 6.42265142,7.3728027 7.72984749,6.832 C9.08061678,6.27733056 10.5039867,6 12,6 Z" id="path-1"></path>
    </defs>
    <g id="Icons/Preview-Active" stroke="none" stroke-width="1" fill="none" fill-rule="evenodd">
        <mask id="mask-2" fill="white">
            <use xlink:href="#path-1"></use>
        </mask>
        <use id="remove_red_eye---material" fill="#228AE6" xlink:href="#path-1"></use>
    </g>
</svg>