<svg xmlns="http://www.w3.org/2000/svg" xmlns:xlink="http://www.w3.org/1999/xlink" width="24" height="24" viewBox="0 0 24 24">
  <defs>
    <path id="scorm-a" d="M18.6349413,7.60351562 C18.878315,7.8509127 19,8.16015439 19,8.53125 L19,19.6640625 C19,20.0351581 18.8752729,20.3505846 18.6258149,20.6103516 C18.3763569,20.8701185 18.0691022,21 17.7040417,21 L6.33246415,21 C5.96740365,21 5.65406476,20.8701185 5.39243807,20.6103516 C5.13081138,20.3505846 5,20.0351581 5,19.6640625 L5,3.3359375 C5,2.96484189 5.13081138,2.64941536 5.39243807,2.38964844 C5.65406476,2.12988151 5.96740365,2 6.33246415,2 L12.6297262,2 C12.8122565,2 12.9886997,2.037109 13.1590613,2.11132812 C13.1833986,2.12369798 13.2016514,2.13606765 13.2138201,2.1484375 C13.2259888,2.1484375 13.2503258,2.16080717 13.2868318,2.18554687 C13.3841813,2.24739614 13.475445,2.31542932 13.5606258,2.38964844 L18.6349413,7.60351562 Z M13.3050847,4.04101562 L13.3050847,7.7890625 L16.9739244,7.7890625 L13.3050847,4.04101562 Z M11.9908735,7.00501956 L7,9.75 L7,15.25 L12,18 L17,15.25 L17,9.75 L15.8636364,9.125 L17.6857888,9.125 L17.6857888,19.6640625 L6.31421121,19.6640625 L6.31421121,3.3359375 L11.9908735,3.3359375 L11.9908735,7.00501956 Z M12.0253826,8.10451029 C12.0799583,8.34233645 12.1992675,8.55261577 12.3833116,8.73535156 C12.6449383,8.99511849 12.9582772,9.125 13.3233377,9.125 L13.8309371,9.125 L15.2656585,9.93589679 L12,11.7817001 L8.73434149,9.93589679 L12,8.0901642 L12.0253826,8.10451029 Z M8.03613968,10.8388214 L11.3031196,12.7998548 L11.3031196,16.7232742 L8.03613968,14.7621657 L8.03613968,10.8388214 Z M12.6968804,16.7232742 L12.6968804,12.7998548 L15.9638603,10.8388214 L15.9638603,14.7621657 L12.6968804,16.7232742 Z"/>
  </defs>
  <g fill="none" fill-rule="evenodd">
    <mask id="scorm-b" fill="#fff">
      <use xlink:href="#scorm-a"/>
    </mask>
    <use fill="#000" xlink:href="#scorm-a"/>
    <g fill="#228ae6" mask="url(#scorm-b)">
      <rect width="24" height="24"/>
    </g>
  </g>
</svg>
