<?xml version="1.0" encoding="UTF-8" standalone="no"?>
<svg width="12px" height="12px" viewBox="0 0 12 12" version="1.1" xmlns="http://www.w3.org/2000/svg" xmlns:xlink="http://www.w3.org/1999/xlink">
    <!-- Generator: Sketch 43.2 (39069) - http://www.bohemiancoding.com/sketch -->
    <title>accept-circular-button-outline copy 2</title>
    <desc>Created with Sketch.</desc>
    <defs></defs>
    <g id="Symbols" stroke="none" stroke-width="1" fill="none" fill-rule="evenodd">
        <g id="accept-circular-button-outline-copy-2" fill-rule="nonzero" fill="#868E96">
            <path d="M1.76430612,10.2338776 C2.31404082,10.7835918 2.95440816,11.2152653 3.66767347,11.5169592 C4.40659184,11.8294898 5.19097959,11.9879388 5.99908163,11.9879388 C6.80716327,11.9879388 7.59157143,11.8294898 8.3304898,11.5169592 C9.04373469,11.2152653 9.68412245,10.7835714 10.2338776,10.2338776 C10.7835918,9.68412245 11.2153061,9.0437551 11.5169592,8.3304898 C11.8294898,7.59157143 11.9879796,6.80716327 11.9879796,5.99910204 C11.9879796,5.19097959 11.8294898,4.40659184 11.5169592,3.66769388 C11.2153061,2.95442857 10.7835714,2.31406122 10.2338776,1.76432653 C9.68412245,1.21459184 9.0437551,0.782897959 8.3304898,0.48122449 C7.59155102,0.168673469 6.80716327,0.0102244898 5.99908163,0.0102244898 C5.19097959,0.0102244898 4.40659184,0.168693878 3.66767347,0.48122449 C2.95440816,0.782897959 2.31404082,1.21461224 1.76430612,1.76432653 C1.21457143,2.31404082 0.782877551,2.95442857 0.481183673,3.66767347 C0.168673469,4.40659184 0.0102040816,5.19097959 0.0102040816,5.99910204 C0.0102040816,6.80718367 0.168673469,7.59157143 0.481204082,8.3304898 C0.782877551,9.0437551 1.21459184,9.68412245 1.76430612,10.2338776 Z M5.99908163,0.884510204 C8.82379592,0.884510204 11.1136531,3.17438776 11.1136531,5.99910204 C11.1136531,8.82379592 8.82379592,11.1136531 5.99908163,11.1136531 C3.17436735,11.1136531 0.884489796,8.82379592 0.884489796,5.99910204 C0.884489796,3.17438776 3.17436735,0.884510204 5.99908163,0.884510204 Z" id="Shape"></path>
            <path d="M4.67330612,8.17946939 C4.75528571,8.26146939 4.86646939,8.3074898 4.98240816,8.3074898 C5.09836735,8.3074898 5.20953061,8.26144898 5.2915102,8.17946939 L9.03408163,4.43691837 C9.20479592,4.26620408 9.20479592,3.98942857 9.03408163,3.81871429 C8.86336735,3.648 8.58657143,3.64797959 8.41585714,3.81871429 L4.98240816,7.25218367 L3.58228571,5.85204082 C3.41157143,5.68130612 3.13479592,5.68130612 2.96408163,5.85204082 C2.79336735,6.0227551 2.79336735,6.29953061 2.96408163,6.4702449 L4.67330612,8.17946939 Z" id="Shape" stroke="#868E96" stroke-width="0.5"></path>
        </g>
    </g>
</svg>