<?xml version="1.0" encoding="UTF-8" standalone="no"?>
<svg width="59px" height="59px" viewBox="0 0 59 59" version="1.1" xmlns="http://www.w3.org/2000/svg" xmlns:xlink="http://www.w3.org/1999/xlink">
    <!-- Generator: Sketch 48.2 (47327) - http://www.bohemiancoding.com/sketch -->
    <title>film (1)</title>
    <desc>Created with Sketch.</desc>
    <defs></defs>
    <g id="Artboard-Copy" stroke="none" stroke-width="1" fill="none" fill-rule="evenodd" transform="translate(-1291.000000, -142.000000)">
        <g id="film-(1)" transform="translate(1291.000000, 142.000000)" fill="#228AE6" fill-rule="nonzero">
            <path d="M58,57 C53.589,57 50,53.411 50,49 C50,48.991 49.995,48.983 49.995,48.974 C54.949,43.769 58,36.736 58,29 C58,13.01 44.99,0 29,0 C13.01,0 0,13.01 0,29 C0,44.99 13.01,58 29,58 C36.34,58 43.048,55.253 48.162,50.74 C48.989,55.426 53.081,59 58,59 C58.553,59 59,58.553 59,58 C59,57.447 58.553,57 58,57 Z M2,29 C2,14.112 14.112,2 29,2 C43.888,2 56,14.112 56,29 C56,43.888 43.888,56 29,56 C14.112,56 2,43.888 2,29 Z" id="Shape"></path>
            <path d="M29,4 C15.215,4 4,15.215 4,29 C4,42.785 15.215,54 29,54 C42.785,54 54,42.785 54,29 C54,15.215 42.785,4 29,4 Z M29,52 C16.317,52 6,41.683 6,29 C6,16.317 16.317,6 29,6 C41.683,6 52,16.317 52,29 C52,41.683 41.683,52 29,52 Z" id="Shape"></path>
            <path d="M41,22 C40.668,22 40.344,22.031 40.024,22.076 L40.001,22.035 L39.251,22.227 C39.241,22.23 39.232,22.234 39.222,22.237 C38.853,22.334 38.495,22.457 38.152,22.611 C38.137,22.618 38.123,22.626 38.108,22.632 C37.772,22.785 37.449,22.96 37.144,23.163 C37.136,23.168 37.127,23.173 37.12,23.178 C36.838,23.367 36.574,23.58 36.323,23.807 C36.272,23.853 36.221,23.898 36.171,23.945 C35.939,24.167 35.721,24.404 35.521,24.656 C35.478,24.71 35.439,24.766 35.397,24.821 C35.198,25.087 35.012,25.362 34.852,25.655 C34.849,25.661 34.845,25.667 34.842,25.674 C34.681,25.971 34.548,26.285 34.43,26.606 C34.409,26.663 34.387,26.72 34.367,26.778 C34.261,27.093 34.178,27.418 34.117,27.751 C34.106,27.813 34.098,27.876 34.088,27.939 C34.036,28.286 34,28.638 34,29 C34,29.362 34.036,29.714 34.089,30.062 C34.099,30.125 34.106,30.187 34.118,30.25 C34.178,30.583 34.262,30.908 34.368,31.223 C34.387,31.281 34.41,31.337 34.431,31.394 C34.548,31.715 34.682,32.029 34.843,32.326 C34.846,32.332 34.85,32.338 34.853,32.345 C35.013,32.638 35.199,32.913 35.397,33.178 C35.438,33.233 35.478,33.289 35.521,33.344 C35.721,33.596 35.938,33.833 36.171,34.055 C36.221,34.102 36.272,34.147 36.323,34.193 C36.575,34.42 36.838,34.633 37.121,34.822 C37.129,34.827 37.137,34.832 37.145,34.837 C37.45,35.039 37.773,35.214 38.109,35.368 C38.124,35.375 38.138,35.383 38.153,35.389 C38.496,35.543 38.853,35.666 39.222,35.763 C39.232,35.766 39.241,35.77 39.251,35.773 L40.001,35.965 L40.024,35.924 C40.344,35.969 40.668,36 41,36 C44.859,36 48,32.859 48,29 C48,25.141 44.859,22 41,22 Z M40,29 C40,30.579 39.656,32.146 39.001,33.577 C38.751,33.467 38.513,33.336 38.287,33.189 C38.206,33.137 38.133,33.077 38.055,33.02 C37.892,32.9 37.735,32.772 37.587,32.634 C37.519,32.571 37.452,32.507 37.389,32.441 C37.221,32.264 37.065,32.076 36.923,31.877 C36.898,31.841 36.868,31.81 36.843,31.773 C36.684,31.536 36.55,31.282 36.433,31.019 C36.4,30.944 36.374,30.865 36.344,30.788 C36.266,30.585 36.2,30.376 36.149,30.161 C36.128,30.075 36.106,29.989 36.09,29.901 C36.037,29.608 36,29.308 36,29 C36,28.692 36.037,28.392 36.091,28.099 C36.107,28.011 36.129,27.925 36.15,27.839 C36.201,27.624 36.267,27.415 36.345,27.212 C36.375,27.135 36.401,27.056 36.434,26.981 C36.551,26.718 36.685,26.464 36.844,26.227 C36.868,26.191 36.899,26.159 36.924,26.123 C37.065,25.923 37.221,25.735 37.39,25.559 C37.454,25.492 37.521,25.429 37.588,25.366 C37.735,25.227 37.892,25.1 38.056,24.98 C38.133,24.924 38.207,24.864 38.288,24.811 C38.515,24.664 38.752,24.533 39.002,24.423 C39.656,25.854 40,27.421 40,29 Z M41,34 C40.995,34 40.991,33.999 40.986,33.999 C41.645,32.419 42,30.718 42,29 C42,27.282 41.645,25.581 40.986,24.001 C40.991,24.001 40.995,24 41,24 C43.757,24 46,26.243 46,29 C46,31.757 43.757,34 41,34 Z" id="Shape"></path>
            <path d="M22.479,33.344 C22.522,33.29 22.561,33.234 22.603,33.179 C22.801,32.914 22.987,32.639 23.147,32.347 C23.151,32.34 23.155,32.333 23.159,32.325 C23.32,32.028 23.453,31.715 23.57,31.394 C23.591,31.337 23.613,31.281 23.633,31.223 C23.739,30.908 23.823,30.583 23.883,30.249 C23.894,30.187 23.902,30.124 23.912,30.062 C23.964,29.715 24,29.362 24,29 C24,28.638 23.964,28.285 23.911,27.938 C23.901,27.875 23.894,27.813 23.882,27.751 C23.822,27.418 23.738,27.093 23.632,26.777 C23.613,26.719 23.59,26.663 23.569,26.605 C23.452,26.284 23.319,25.971 23.158,25.675 C23.154,25.668 23.15,25.661 23.146,25.653 C22.986,25.361 22.8,25.085 22.602,24.82 C22.561,24.765 22.521,24.709 22.479,24.655 C22.279,24.403 22.062,24.166 21.829,23.944 C21.779,23.897 21.728,23.852 21.677,23.806 C21.425,23.579 21.162,23.366 20.879,23.177 C20.871,23.172 20.863,23.168 20.855,23.163 C20.55,22.961 20.227,22.786 19.891,22.632 C19.876,22.625 19.861,22.617 19.846,22.61 C19.503,22.457 19.145,22.333 18.776,22.236 C18.766,22.233 18.757,22.229 18.748,22.226 L17.998,22.034 L17.975,22.075 C17.656,22.031 17.332,22 17,22 C13.141,22 10,25.141 10,29 C10,32.859 13.141,36 17,36 C17.332,36 17.656,35.969 17.976,35.924 L17.999,35.965 L18.749,35.773 C18.759,35.77 18.768,35.766 18.778,35.763 C19.147,35.666 19.505,35.543 19.847,35.389 C19.862,35.382 19.877,35.374 19.892,35.367 C20.228,35.214 20.551,35.038 20.856,34.836 C20.864,34.831 20.872,34.827 20.879,34.822 C21.162,34.633 21.425,34.42 21.677,34.193 C21.728,34.147 21.779,34.102 21.829,34.055 C22.061,33.833 22.279,33.596 22.479,33.344 Z M21.909,29.901 C21.893,29.989 21.871,30.075 21.85,30.161 C21.799,30.376 21.733,30.585 21.655,30.788 C21.625,30.865 21.599,30.944 21.566,31.019 C21.449,31.282 21.315,31.536 21.156,31.773 C21.132,31.809 21.101,31.841 21.076,31.877 C20.935,32.077 20.779,32.265 20.61,32.441 C20.546,32.508 20.479,32.571 20.412,32.634 C20.265,32.773 20.108,32.9 19.944,33.02 C19.867,33.076 19.793,33.136 19.712,33.189 C19.485,33.336 19.248,33.467 18.998,33.577 C18.344,32.146 18,30.579 18,29 C18,27.421 18.344,25.854 18.999,24.423 C19.249,24.533 19.487,24.664 19.713,24.811 C19.794,24.863 19.867,24.923 19.945,24.98 C20.108,25.1 20.265,25.228 20.413,25.366 C20.481,25.429 20.548,25.493 20.611,25.559 C20.779,25.736 20.935,25.924 21.077,26.123 C21.102,26.159 21.132,26.19 21.157,26.227 C21.316,26.464 21.45,26.718 21.567,26.981 C21.6,27.056 21.626,27.135 21.656,27.212 C21.734,27.415 21.8,27.624 21.851,27.839 C21.872,27.925 21.894,28.011 21.91,28.099 C21.963,28.392 22,28.692 22,29 C22,29.308 21.963,29.608 21.909,29.901 Z M12,29 C12,26.243 14.243,24 17,24 C17.005,24 17.009,24.001 17.014,24.001 C16.355,25.581 16,27.282 16,29 C16,30.718 16.355,32.419 17.014,33.999 C17.009,33.999 17.005,34 17,34 C14.243,34 12,31.757 12,29 Z" id="Shape"></path>
            <path d="M22.035,17.999 L22.227,18.749 C22.23,18.759 22.234,18.768 22.237,18.778 C22.334,19.147 22.457,19.505 22.611,19.847 C22.618,19.862 22.626,19.876 22.632,19.891 C22.785,20.227 22.961,20.55 23.163,20.855 C23.168,20.863 23.173,20.871 23.178,20.879 C23.367,21.161 23.58,21.425 23.807,21.677 C23.853,21.728 23.898,21.779 23.945,21.829 C24.167,22.061 24.404,22.279 24.656,22.479 C24.71,22.522 24.766,22.562 24.821,22.603 C25.087,22.802 25.362,22.988 25.655,23.148 C25.661,23.152 25.667,23.155 25.674,23.158 C25.971,23.319 26.285,23.452 26.606,23.57 C26.663,23.591 26.719,23.613 26.777,23.633 C27.092,23.739 27.417,23.822 27.75,23.883 C27.812,23.894 27.875,23.902 27.938,23.912 C28.286,23.964 28.638,24 29,24 C29.362,24 29.714,23.964 30.062,23.911 C30.125,23.901 30.187,23.894 30.25,23.882 C30.583,23.822 30.908,23.738 31.223,23.632 C31.281,23.613 31.337,23.59 31.395,23.569 C31.716,23.452 32.03,23.318 32.327,23.157 C32.333,23.154 32.339,23.15 32.346,23.147 C32.639,22.987 32.914,22.801 33.18,22.602 C33.235,22.561 33.291,22.521 33.345,22.478 C33.597,22.278 33.834,22.061 34.056,21.828 C34.103,21.778 34.148,21.727 34.194,21.676 C34.421,21.425 34.634,21.161 34.823,20.879 C34.828,20.871 34.833,20.863 34.838,20.855 C35.04,20.55 35.215,20.227 35.369,19.891 C35.376,19.876 35.384,19.862 35.39,19.847 C35.543,19.504 35.667,19.146 35.764,18.777 C35.767,18.767 35.771,18.758 35.774,18.748 L35.966,17.998 L35.925,17.975 C35.969,17.656 36,17.332 36,17 C36,13.141 32.859,10 29,10 C25.141,10 22,13.141 22,17 C22,17.332 22.031,17.656 22.076,17.976 L22.035,17.999 Z M33.189,19.713 C33.137,19.794 33.077,19.867 33.02,19.944 C32.9,20.107 32.772,20.264 32.634,20.412 C32.571,20.479 32.507,20.547 32.441,20.61 C32.264,20.778 32.076,20.934 31.877,21.076 C31.841,21.101 31.81,21.131 31.773,21.156 C31.536,21.315 31.282,21.449 31.019,21.566 C30.944,21.599 30.865,21.625 30.788,21.655 C30.585,21.733 30.376,21.799 30.161,21.85 C30.075,21.871 29.989,21.893 29.901,21.909 C29.608,21.963 29.308,22 29,22 C28.692,22 28.392,21.963 28.099,21.909 C28.011,21.893 27.925,21.871 27.839,21.85 C27.624,21.799 27.415,21.733 27.212,21.655 C27.135,21.625 27.057,21.599 26.981,21.566 C26.718,21.449 26.464,21.315 26.227,21.156 C26.191,21.132 26.159,21.101 26.123,21.076 C25.923,20.935 25.735,20.778 25.559,20.61 C25.492,20.546 25.429,20.479 25.366,20.412 C25.228,20.265 25.1,20.108 24.98,19.944 C24.924,19.867 24.864,19.793 24.811,19.713 C24.664,19.486 24.532,19.249 24.423,18.999 C27.284,17.689 30.715,17.689 33.577,18.999 C33.467,19.249 33.336,19.487 33.189,19.713 Z M29,12 C31.757,12 34,14.243 34,17 C34,17.006 33.998,17.012 33.998,17.018 C30.833,15.716 27.166,15.716 24.002,17.018 C24.002,17.012 24,17.006 24,17 C24,14.243 26.243,12 29,12 Z" id="Shape"></path>
            <path d="M35.965,40.001 L35.773,39.251 C35.77,39.241 35.766,39.232 35.763,39.223 C35.666,38.854 35.542,38.496 35.389,38.153 C35.382,38.138 35.374,38.123 35.367,38.108 C35.214,37.772 35.038,37.449 34.836,37.144 C34.831,37.136 34.827,37.128 34.822,37.12 C34.633,36.837 34.42,36.574 34.193,36.322 C34.147,36.271 34.102,36.22 34.055,36.17 C33.833,35.937 33.596,35.72 33.344,35.52 C33.29,35.477 33.234,35.438 33.179,35.397 C32.914,35.199 32.639,35.013 32.346,34.853 C32.339,34.849 32.332,34.845 32.324,34.841 C32.027,34.68 31.714,34.547 31.394,34.43 C31.337,34.409 31.28,34.387 31.222,34.367 C30.907,34.261 30.582,34.178 30.248,34.117 C30.186,34.106 30.124,34.098 30.061,34.088 C29.715,34.036 29.362,34 29,34 C28.638,34 28.285,34.036 27.938,34.089 C27.875,34.099 27.813,34.106 27.751,34.118 C27.418,34.179 27.093,34.262 26.777,34.368 C26.719,34.387 26.663,34.41 26.606,34.431 C26.285,34.548 25.972,34.681 25.675,34.842 C25.668,34.846 25.661,34.85 25.653,34.854 C25.361,35.014 25.086,35.199 24.821,35.398 C24.766,35.439 24.71,35.479 24.656,35.522 C24.404,35.722 24.167,35.939 23.945,36.172 C23.898,36.222 23.853,36.273 23.807,36.324 C23.58,36.575 23.367,36.839 23.178,37.122 C23.173,37.13 23.169,37.138 23.164,37.146 C22.962,37.451 22.786,37.774 22.633,38.11 C22.626,38.125 22.618,38.14 22.611,38.155 C22.458,38.498 22.334,38.855 22.237,39.224 C22.234,39.234 22.229,39.243 22.227,39.253 L22.035,40.003 L22.076,40.026 C22.031,40.344 22,40.668 22,41 C22,44.859 25.141,48 29,48 C32.859,48 36,44.859 36,41 C36,40.668 35.969,40.344 35.924,40.024 L35.965,40.001 Z M24.811,38.287 C24.863,38.206 24.923,38.133 24.98,38.056 C25.1,37.893 25.228,37.736 25.366,37.588 C25.429,37.521 25.493,37.453 25.559,37.39 C25.736,37.222 25.924,37.066 26.123,36.924 C26.159,36.899 26.19,36.869 26.227,36.844 C26.464,36.685 26.718,36.551 26.981,36.434 C27.056,36.401 27.135,36.375 27.212,36.345 C27.415,36.267 27.624,36.201 27.839,36.15 C27.925,36.129 28.011,36.107 28.099,36.091 C28.392,36.037 28.692,36 29,36 C29.308,36 29.608,36.037 29.901,36.091 C29.989,36.107 30.075,36.129 30.161,36.15 C30.376,36.201 30.585,36.267 30.788,36.345 C30.865,36.375 30.943,36.401 31.019,36.434 C31.282,36.551 31.536,36.685 31.773,36.844 C31.809,36.868 31.841,36.899 31.877,36.924 C32.077,37.065 32.265,37.222 32.441,37.39 C32.508,37.454 32.571,37.521 32.634,37.588 C32.772,37.735 32.9,37.892 33.02,38.056 C33.076,38.133 33.136,38.207 33.189,38.287 C33.336,38.514 33.468,38.751 33.577,39.001 C30.716,40.311 27.285,40.311 24.423,39.001 C24.533,38.751 24.664,38.513 24.811,38.287 Z M29,46 C26.243,46 24,43.757 24,41 C24,40.995 24.001,40.991 24.001,40.986 C25.581,41.645 27.282,42 29,42 C30.718,42 32.419,41.645 33.999,40.986 C33.999,40.991 34,40.995 34,41 C34,43.757 31.757,46 29,46 Z" id="Shape"></path>
        </g>
    </g>
</svg>