<?xml version="1.0" encoding="UTF-8" standalone="no"?>
<svg width="16px" height="20px" viewBox="0 0 16 20" version="1.1" xmlns="http://www.w3.org/2000/svg" xmlns:xlink="http://www.w3.org/1999/xlink">
    <!-- Generator: Sketch 42 (36781) - http://www.bohemiancoding.com/sketch -->
    <title>Shape</title>
    <desc>Created with Sketch.</desc>
    <defs></defs>
    <g id="Page-1" stroke="none" stroke-width="1" fill="none" fill-rule="evenodd">
        <g id="Artboard-Copy-2" transform="translate(-1083.000000, -612.000000)" fill-rule="nonzero" fill="#868E96">
            <g id="ic_find_in_page_black_24px" transform="translate(1079.000000, 610.000000)">
                <g id="Group">
                    <path d="M20,19.59 L20,8 L14,2 L6,2 C4.9,2 4.01,2.9 4.01,4 L4,20 C4,21.1 4.89,22 5.99,22 L18,22 C18.45,22 18.85,21.85 19.19,21.6 L14.76,17.17 C13.96,17.69 13.02,18 12,18 C9.24,18 7,15.76 7,13 C7,10.24 9.24,8 12,8 C14.76,8 17,10.24 17,13 C17,14.02 16.69,14.96 16.17,15.75 L20,19.59 Z M9,13 C9,14.66 10.34,16 12,16 C13.66,16 15,14.66 15,13 C15,11.34 13.66,10 12,10 C10.34,10 9,11.34 9,13 Z" id="Shape"></path>
                </g>
            </g>
        </g>
    </g>
</svg>