<?xml version="1.0" encoding="UTF-8"?>
<svg width="24px" height="24px" viewBox="0 0 24 24" version="1.1" xmlns="http://www.w3.org/2000/svg" xmlns:xlink="http://www.w3.org/1999/xlink">
    <!-- Generator: Sketch 55.2 (78181) - https://sketchapp.com -->
    <title>Icons/Zoom Active</title>
    <desc>Created with Sketch.</desc>
    <defs>
        <polygon id="path-1" points="12 4 20 4 20 12 16.4961049 9.15942889 9.11788146 16.4545575 12 20 4 20 4 12 7.50389507 14.8405711 14.8821185 7.5454425"></polygon>
    </defs>
    <g id="Icons/Zoom-Active" stroke="none" stroke-width="1" fill="none" fill-rule="evenodd">
        <mask id="mask-2" fill="white">
            <use xlink:href="#path-1"></use>
        </mask>
        <use id="" fill="#228AE6" fill-rule="nonzero" transform="translate(12.000000, 12.000000) rotate(-360.000000) translate(-12.000000, -12.000000) " xlink:href="#path-1"></use>
    </g>
</svg>