<?xml version="1.0" encoding="UTF-8"?>
<svg width="140px" height="169px" viewBox="0 0 140 169" version="1.1" xmlns="http://www.w3.org/2000/svg" xmlns:xlink="http://www.w3.org/1999/xlink">
    <!-- Generator: Sketch 60.1 (88133) - https://sketch.com -->
    <title>Icon</title>
    <desc>Created with Sketch.</desc>
    <g id="Admin" stroke="none" stroke-width="1" fill="none" fill-rule="evenodd">
        <g id="09.1-FT-Upgrade-Features" transform="translate(-427.000000, -398.000000)" fill-rule="nonzero">
            <g id="Modal" transform="translate(359.000000, 258.000000)">
                <g id="Group-5" transform="translate(68.000000, 140.000000)">
                    <g id="Icon">
                        <g id="gift" transform="translate(8.000000, 45.000000)">
                            <polygon id="Path" fill="#BDD3F5" points="19 20 109 20 109 101 19 101"></polygon>
                            <path d="M13.8,20 C11.7013867,20 10,21.6792799 10,23.7506251 L10,97.2493749 C10,99.3207201 11.7013867,101 13.8,101 L29,101 L29,20 L13.8,20 Z" id="Path" fill="#A1C0F0"></path>
                            <polygon id="Path" fill="#A1C0F0" points="64 20 109 20 109 101 64 101"></polygon>
                            <path d="M114.2,20 L99,20 L99,101 L114.2,101 C116.298613,101 118,99.3207201 118,97.2493749 L118,23.7506251 C118,21.6792799 116.298613,20 114.2,20 Z" id="Path" fill="#72A1EA"></path>
                            <path d="M124.25,27 L3.75,27 C1.679,27 0,25.3515273 0,23.3181818 L0,3.68181818 C0,1.64847273 1.679,0 3.75,0 L124.25,0 C126.321,0 128,1.64847273 128,3.68181818 L128,23.3181818 C128,25.3515273 126.321,27 124.25,27 Z" id="Path" fill="#F5F8FD"></path>
                            <path d="M124.25,0 L64,0 L64,27 L124.25,27 C126.321,27 128,25.3515273 128,23.3181818 L128,3.68181818 C128,1.64847273 126.321,0 124.25,0 Z" id="Path" fill="#D9E6F9"></path>
                        </g>
                        <g id="crown-(1)" transform="translate(36.000000, 55.000000)">
                            <path d="M71.5,36 C71.5,33.5566406 70.6578663,31.1890868 69.153556,29.3148194 C69.8399785,26.996704 69.728987,24.480835 68.8119612,22.2231445 C67.8949353,19.9660035 66.2284483,18.1071167 64.1352371,16.9623413 C63.8992457,14.5530395 62.8523708,12.2717285 61.1578663,10.5441285 C59.4628233,8.81652825 57.2257543,7.74920658 54.8626077,7.50860592 C53.7397629,5.37451172 51.916487,3.67547611 49.7025862,2.73999023 C47.4881465,1.80560306 45.0204742,1.69244381 42.7467672,2.39227298 C40.9084052,0.858581578 38.5862069,0 36.1896552,0 L15.5,36 L36.1896552,72 C38.5862069,72 40.9084052,71.1414184 42.7467672,69.607727 C45.0204742,70.3075562 47.4881465,70.1943969 49.7025862,69.2594605 C51.916487,68.3245239 53.7397629,66.6254883 54.8626077,64.4913941 C57.2257543,64.2507934 59.4633621,63.1834718 61.1578663,61.4558715 C62.8523708,59.7282715 63.8992457,57.4469605 64.1352371,55.0371094 C66.2284483,53.8928833 67.8949353,52.0334473 68.8119612,49.7763062 C69.728987,47.519165 69.8399785,45.003296 69.153556,42.6846313 C70.6578663,40.8109132 71.5,38.4433594 71.5,36 Z" id="Path" fill="#FF9D3B"></path>
                            <path d="M29.3148194,2.39227298 C26.996704,1.69244381 24.480835,1.80560306 22.2231445,2.74053952 C19.9660035,3.67547611 18.1071167,5.37451172 16.9623413,7.50860592 C14.5530395,7.74920658 12.2717285,8.81652825 10.5441285,10.5441285 C8.81652825,12.2717285 7.74920658,14.5530395 7.50860592,16.9628906 C5.37451172,18.1071167 3.67547611,19.9665527 2.74053952,22.2236938 C1.80560306,24.480835 1.69244381,26.996704 2.39227298,29.3153687 C0.858581578,31.1890868 0,33.5566406 0,36 C0,38.4433594 0.858581578,40.8109132 2.39227298,42.6851806 C1.69244381,45.003296 1.80560306,47.519165 2.74053952,49.7768555 C3.67547611,52.0339965 5.37451172,53.8928833 7.50860592,55.0376587 C7.74920658,57.4469605 8.81652825,59.7282715 10.5441285,61.4558715 C12.2717285,63.1834718 14.5530395,64.2507934 16.9623413,64.4913941 C18.1071167,66.6254883 19.9660035,68.3245239 22.2231445,69.2600098 C24.480835,70.1943969 26.996704,70.3075562 29.3148194,69.6082764 C31.1890868,71.1414184 33.5566406,72 36,72 L36,0 C33.5566406,0 31.1890868,0.858581578 29.3148194,2.39227298 Z" id="Path" fill="#FFC40F"></path>
                            <path d="M35.3333333,12 L23,37 L35.3333333,62 C48.9562066,62 60,50.8069661 60,37 C60,23.1930339 48.9562066,12 35.3333333,12 Z" id="Path" fill="#FF7666"></path>
                            <path d="M10,37 C10,50.8069661 21.6407552,62 36,62 L36,12 C21.6407552,12 10,23.1930339 10,37 Z" id="Path" fill="#FF9D3B"></path>
                            <polygon id="Path" fill="#FF9D3B" points="48.1694073 38.4275486 26 30 34.68957 49 46.7550981 49"></polygon>
                            <polygon id="Path" fill="#FFC40F" points="22 38.4444444 23.7577354 49 36 49 36 30"></polygon>
                            <polygon id="Path" fill="#FFC40F" points="48.0874454 39 50 26.1866965 42.1507721 28.0363331 36 20 27 33.7926216 35.3291288 39"></polygon>
                            <polygon id="Path" fill="#FFD959" points="36 20 28.5603401 28.0363331 20 26.1866965 22.0858252 39 36 39"></polygon>
                        </g>
                        <g id="Sparkles">
                            <g id="Sparkles-1" transform="translate(0.000000, 140.000000)">
                                <path d="M7.2,0 L4.8,0 C4.8,2.41992667 2.63992,4.4 0,4.4 L0,6.6 C2.63992,6.6 4.8,8.57992667 4.8,11 L7.2,11 C7.2,8.57992667 9.36008,6.6 12,6.6 L12,4.4 C9.36008,4.4 7.2,2.41992667 7.2,0 Z" id="Path" fill="#FFD959"></path>
                                <path d="M12,4.4 L12,6.6 C9.36008,6.6 7.2,8.57992667 7.2,11 L6,11 L6,0 L7.2,0 C7.2,2.41992667 9.36008,4.4 12,4.4 Z" id="Path" fill="#FFC40F"></path>
                                <path d="M20.8666667,13 L18.6,13 C18.6,16.7534787 15.5400756,19.8246445 11.8,19.8246445 L11.8,22.0995261 C15.5400756,22.0995261 18.6,25.2463697 18.6,29 L20.8666667,29 C20.8666667,25.2463697 23.9265911,22.0995261 27.6666667,22.0995261 L27.6666667,19.8246445 C23.9265911,19.8246445 20.8666667,16.7534787 20.8666667,13 Z" id="Path" fill="#FFD959"></path>
                                <polygon id="Path" fill="#FFD959" points="5 22.2460938 7.26666667 22.2460938 7.26666667 24.4726562 5 24.4726562"></polygon>
                                <polygon id="Path" fill="#FFC40F" points="23.6666667 9 25.6666667 9 25.6666667 11 23.6666667 11"></polygon>
                                <path d="M27.6666667,19.8246445 L27.6666667,22.0995261 C23.8951619,22.0995261 20.8095238,25.2463697 20.8095238,29 L19.6666667,29 L19.6666667,13 L20.8095238,13 C20.8095238,16.7534787 23.8951619,19.8246445 27.6666667,19.8246445 Z" id="Path" fill="#FFC40F"></path>
                            </g>
                            <g id="Sparkles-2" transform="translate(106.000000, 0.000000)">
                                <g id="Group" fill="#FFD959">
                                    <path d="M24.3333333,0 L22.0666667,0 C22.0666667,4.92062891 18.0094089,8.98046875 13,8.98046875 L13,11.2070312 C18.0094089,11.2070312 22.0666667,15.1925039 22.0666667,20.1132812 L24.3333333,20.1132812 C24.3333333,15.1925039 28.3905911,11.2070312 33.4,11.2070312 L33.4,8.98046875 C28.3905911,8.98046875 24.3333333,4.92062891 24.3333333,0 Z" id="Path"></path>
                                    <path d="M7.2,22 L4.8,22 C4.8,24.4199267 2.63992,26.4 0,26.4 L0,28.6 C2.63992,28.6 4.8,30.5799267 4.8,33 L7.2,33 C7.2,30.5799267 9.36008,28.6 12,28.6 L12,26.4 C9.36008,26.4 7.2,24.4199267 7.2,22 Z" id="Path"></path>
                                </g>
                                <polygon id="Path" fill="#FFDA2D" points="13 17 15 17 15 19 13 19"></polygon>
                                <polygon id="Path" fill="#FFC40F" points="21 28 23 28 23 30 21 30"></polygon>
                                <path d="M12,26.4 L12,28.6 C9.36008,28.6 7.2,30.5799267 7.2,33 L6,33 L6,22 L7.2,22 C7.2,24.4199267 9.36008,26.4 12,26.4 Z" id="Path" fill="#FFC40F"></path>
                                <path d="M33.2,8.9298893 L33.2,11.1439114 C28.2888148,11.1439114 24.3111111,15.1069373 24.3111111,20 L23.2,20 L23.2,0 L24.3111111,0 C24.3111111,4.89291513 28.2888148,8.9298893 33.2,8.9298893 Z" id="Path" fill="#FFC40F"></path>
                            </g>
                        </g>
                    </g>
                </g>
            </g>
        </g>
    </g>
</svg>