<?xml version="1.0" encoding="UTF-8" standalone="no"?>
<svg width="366px" height="239px" viewBox="0 0 366 239" version="1.1" xmlns="http://www.w3.org/2000/svg" xmlns:xlink="http://www.w3.org/1999/xlink">
    <!-- Generator: Sketch 45.2 (43514) - http://www.bohemiancoding.com/sketch -->
    <title>Group 4</title>
    <desc>Created with Sketch.</desc>
    <defs>
        <filter x="-2.4%" y="-2.3%" width="105.2%" height="106.5%" filterUnits="objectBoundingBox" id="filter-1">
            <feOffset dx="0" dy="2" in="SourceAlpha" result="shadowOffsetOuter1"></feOffset>
            <feGaussianBlur stdDeviation="2" in="shadowOffsetOuter1" result="shadowBlurOuter1"></feGaussianBlur>
            <feColorMatrix values="0 0 0 0 0   0 0 0 0 0   0 0 0 0 0  0 0 0 0.5 0" type="matrix" in="shadowBlurOuter1" result="shadowMatrixOuter1"></feColorMatrix>
            <feMerge>
                <feMergeNode in="shadowMatrixOuter1"></feMergeNode>
                <feMergeNode in="SourceGraphic"></feMergeNode>
            </feMerge>
        </filter>
        <path d="M357.513292,81.9042048 L9.34741877,81.9042048 C4.69717513,81.9042048 0.928075305,80.5728242 0.928075305,78.9304441 L0.928075305,13.4321617 C0.928075305,11.7897815 4.69717513,10.4581491 9.34741877,10.4581491 L357.513292,10.4581491 C362.162823,10.4581491 365.932635,11.7895297 365.932635,13.4321617 L365.932635,78.9306959 C365.932635,80.5728242 362.162823,81.9042048 357.513292,81.9042048 Z" id="path-2"></path>
    </defs>
    <g id="Page-1" stroke="none" stroke-width="1" fill="none" fill-rule="evenodd">
        <g id="unpublished" transform="translate(-537.000000, -313.000000)">
            <g id="Group-4" transform="translate(537.000000, 315.000000)">
                <g id="Group-3" transform="translate(38.000000, 0.000000)">
                    <g id="browser" filter="url(#filter-1)" fill-rule="nonzero">
                        <path d="M275.95035,0.450712597 L15.051982,0.450712597 C6.73909112,0.450712597 0,7.18980372 0,15.5026946 L0,206.159238 C0,214.472129 6.73909112,221.21122 15.051982,221.21122 L275.95035,221.21122 C284.263241,221.21122 291.002332,214.472129 291.002332,206.159238 L291.002332,15.5026946 C291.002332,7.18980372 284.263241,0.450712597 275.95035,0.450712597 Z M250.863903,10.4851778 L255.88142,10.4851778 C258.652194,10.4851778 260.898937,12.7319204 260.898937,15.5026946 C260.898937,18.2734687 258.652194,20.5202113 255.88142,20.5202113 L250.863903,20.5202113 C248.093129,20.5202113 245.846386,18.2734687 245.846386,15.5026946 C245.846955,12.7319204 248.093129,10.4851778 250.863903,10.4851778 Z M110.380254,10.4851778 L230.794973,10.4851778 C233.565747,10.4851778 235.81249,12.7319204 235.81249,15.5026946 C235.81249,18.2734687 233.565747,20.5202113 230.794973,20.5202113 L110.380254,20.5202113 C107.60948,20.5202113 105.362737,18.2734687 105.362737,15.5026946 C105.362737,12.7319204 107.60948,10.4851778 110.380254,10.4851778 Z M85.2938066,10.4851778 L90.3113234,10.4851778 C93.0820976,10.4851778 95.3288402,12.7319204 95.3288402,15.5026946 C95.3288402,18.2734687 93.0820976,20.5202113 90.3113234,20.5202113 L85.2938066,20.5202113 C82.5230325,20.5202113 80.2762899,18.2734687 80.2762899,15.5026946 C80.2762899,12.7319204 82.5230325,10.4851778 85.2938066,10.4851778 Z M65.2248763,10.4851778 L70.242393,10.4851778 C73.0131672,10.4851778 75.2599098,12.7319204 75.2599098,15.5026946 C75.2599098,18.2734687 73.0131672,20.5202113 70.242393,20.5202113 L65.2248763,20.5202113 C62.4541021,20.5202113 60.2073595,18.2734687 60.2073595,15.5026946 C60.2073595,12.7319204 62.4541021,10.4851778 65.2248763,10.4851778 Z M45.1553775,10.4851778 C47.9261517,10.4851778 50.1728943,12.7319204 50.1728943,15.5026946 C50.1728943,18.2734687 47.9261517,20.5202113 45.1553775,20.5202113 C42.3846034,20.5202113 40.1378607,18.2734687 40.1378607,15.5026946 C40.1384291,12.7319204 42.3846034,10.4851778 45.1553775,10.4851778 Z M30.1039639,10.4851778 C32.8747381,10.4851778 35.1214807,12.7319204 35.1214807,15.5026946 C35.1214807,18.2734687 32.8747381,20.5202113 30.1039639,20.5202113 C27.3331898,20.5202113 25.0864471,18.2734687 25.0864471,15.5026946 C25.0864471,12.7319204 27.3326214,10.4851778 30.1039639,10.4851778 Z M15.051982,10.4851778 C17.8227561,10.4851778 20.0694987,12.7319204 20.0694987,15.5026946 C20.0694987,18.2734687 17.8227561,20.5202113 15.051982,20.5202113 C12.2812078,20.5202113 10.0344652,18.2734687 10.0344652,15.5026946 C10.0344652,12.7319204 12.2812078,10.4851778 15.051982,10.4851778 Z M280.967867,60.6580721 L280.967867,206.159238 C280.967867,208.930012 278.721124,211.176755 275.95035,211.176755 L15.051982,211.176755 C12.2812078,211.176755 10.0344652,208.930012 10.0344652,206.159238 L10.0344652,60.6580721 L10.0344652,35.5716249 C10.0344652,32.8008508 12.2812078,30.5541082 15.051982,30.5541082 L275.95035,30.5541082 C278.721124,30.5541082 280.967867,32.8008508 280.967867,35.5716249 L280.967867,60.6580721 L280.967867,60.6580721 Z M275.95035,20.519643 L270.932834,20.519643 C268.162059,20.519643 265.915317,18.2729004 265.915317,15.5021262 C265.915317,12.731352 268.162059,10.4846094 270.932834,10.4846094 L275.95035,10.4846094 C278.721124,10.4846094 280.967867,12.731352 280.967867,15.5021262 C280.967867,18.2734687 278.721124,20.519643 275.95035,20.519643 Z" id="Shape" fill="#D2DCF0"></path>
                        <path d="M10.0344652,206.159238 C10.0344652,208.930012 12.2812078,211.176755 15.051982,211.176755 L275.95035,211.176755 C278.721124,211.176755 280.967867,208.930012 280.967867,206.159238 L280.967867,60.6580721 L10.0344652,60.6580721 L10.0344652,206.159238 Z M225.777456,85.7445192 L225.777456,80.7270025 C225.777456,77.9562283 228.024199,75.7094857 230.794973,75.7094857 L260.898937,75.7094857 C263.669711,75.7094857 265.916453,77.9562283 265.916453,80.7270025 L265.916453,85.7445192 L265.916453,125.882948 C265.916453,128.653723 263.669711,130.900465 260.898937,130.900465 L230.794973,130.900465 C228.024199,130.900465 225.777456,128.653723 225.777456,125.882948 L225.777456,85.7445192 Z" id="Shape" fill="#FFFFFF"></path>
                        <circle id="Oval" fill="#FF6469" cx="15.051982" cy="15.5026946" r="5.01751678"></circle>
                        <circle id="Oval" fill="#FFE169" cx="30.1039639" cy="15.5026946" r="5.01751678"></circle>
                        <circle id="Oval" fill="#87E1AA" cx="45.1553775" cy="15.5026946" r="5.01751678"></circle>
                        <g id="Group" transform="translate(59.678213, 10.230551)" fill="#E4EAF6">
                            <path d="M5.54666359,10.2890922 L10.5641804,10.2890922 C13.3349545,10.2890922 15.5816971,8.04234961 15.5816971,5.27157545 C15.5816971,2.50080129 13.3349545,0.254058677 10.5641804,0.254058677 L5.54666359,0.254058677 C2.77588943,0.254058677 0.529146819,2.50080129 0.529146819,5.27157545 C0.529146819,8.04291798 2.77588943,10.2890922 5.54666359,10.2890922 Z" id="Shape"></path>
                            <path d="M25.615594,10.2890922 L30.6331107,10.2890922 C33.4038849,10.2890922 35.6506275,8.04234961 35.6506275,5.27157545 C35.6506275,2.50080129 33.4038849,0.254058677 30.6331107,0.254058677 L25.615594,0.254058677 C22.8448198,0.254058677 20.5980772,2.50080129 20.5980772,5.27157545 C20.5980772,8.04291798 22.8448198,10.2890922 25.615594,10.2890922 Z" id="Shape"></path>
                            <path d="M191.18569,10.2890922 L196.203207,10.2890922 C198.973981,10.2890922 201.220724,8.04234961 201.220724,5.27157545 C201.220724,2.50080129 198.973981,0.254058677 196.203207,0.254058677 L191.18569,0.254058677 C188.414916,0.254058677 186.168174,2.50080129 186.168174,5.27157545 C186.168742,8.04291798 188.414916,10.2890922 191.18569,10.2890922 Z" id="Shape"></path>
                            <path d="M216.272138,0.254627041 L211.254621,0.254627041 C208.483847,0.254627041 206.237104,2.50136966 206.237104,5.27214382 C206.237104,8.04291798 208.483847,10.2896606 211.254621,10.2896606 L216.272138,10.2896606 C219.042912,10.2896606 221.289654,8.04291798 221.289654,5.27214382 C221.289654,2.50136966 219.042912,0.254627041 216.272138,0.254627041 Z" id="Shape"></path>
                            <path d="M50.7020411,10.2890922 L171.11676,10.2890922 C173.887534,10.2890922 176.134277,8.04234961 176.134277,5.27157545 C176.134277,2.50080129 173.887534,0.254058677 171.11676,0.254058677 L50.7020411,0.254058677 C47.931267,0.254058677 45.6845243,2.50080129 45.6845243,5.27157545 C45.6845243,8.04291798 47.931267,10.2890922 50.7020411,10.2890922 Z" id="Shape"></path>
                        </g>
                        <path d="M275.95035,30.5546765 L15.051982,30.5546765 C12.2812078,30.5546765 10.0344652,32.8014191 10.0344652,35.5721933 L10.0344652,143.639774 L280.967867,143.639774 L280.967867,35.5721933 C280.967867,32.8008508 278.721124,30.5546765 275.95035,30.5546765 Z" id="Shape" fill="#5C7CFA"></path>
                    </g>
                    <g id="Group-2" transform="translate(86.959681, 59.109849)">
                        <rect id="Rectangle-6" fill="#4263EB" x="0" y="0" width="106.284055" height="11.3672786" rx="5.6836393"></rect>
                        <rect id="Rectangle-6" fill="#FFFFFF" x="0" y="45.4691144" width="28.4181965" height="6.25200323" rx="3.12600162"></rect>
                        <rect id="Rectangle-6" fill="#4263EB" x="0" y="22.7345572" width="106.284055" height="11.3672786" rx="5.6836393"></rect>
                    </g>
                    <rect id="Rectangle-7" fill="#E9EFF4" x="21.5978293" y="151.753169" width="52.2894816" height="51.7211176" rx="16"></rect>
                    <rect id="Rectangle-7" fill="#E9EFF4" x="88.0964092" y="151.753169" width="52.2894816" height="51.7211176" rx="16"></rect>
                    <rect id="Rectangle-7" fill="#E9EFF4" x="154.594989" y="151.753169" width="52.2894816" height="51.7211176" rx="16"></rect>
                    <rect id="Rectangle-7" fill="#E9EFF4" x="221.093569" y="151.753169" width="52.2894816" height="51.7211176" rx="16"></rect>
                </g>
                <g id="sign" transform="translate(0.000000, 111.000000)">
                    <g id="Group" transform="translate(11.569219, 0.000000)" fill-rule="nonzero" fill="#FB0125">
                        <path d="M11.1224544,116.911178 L0,116.911178 L0,99.3068369 L0,98.8238431 L0,91.5477112 L0,2.13620224 C0,0.95641826 0.95641826,0 2.13620224,0 L8.98600031,0 C10.1657843,0 11.1222025,0.95641826 11.1222025,2.13620224 L11.1222025,116.911178 L11.1224544,116.911178 Z" id="Shape"></path>
                        <path d="M344.562773,117.113139 L333.440571,117.113139 L333.440571,2.33816312 C333.440571,1.15837915 334.396989,0.201960886 335.576773,0.201960886 L342.426823,0.201960886 C343.606607,0.201960886 344.563025,1.15837915 344.563025,2.33816312 L344.563025,117.113139 L344.562773,117.113139 Z" id="Shape"></path>
                    </g>
                    <g id="Group" transform="translate(11.569219, 81.842005)" fill-rule="nonzero" fill="#BA041F">
                        <rect id="Rectangle-path" x="333.440823" y="0.0616962806" width="11.1222025" height="7.90140488"></rect>
                        <rect id="Rectangle-path" x="0" y="0" width="11.1222025" height="7.90140488"></rect>
                    </g>
                    <path d="M28.0970729,117 L6.7408424,117 C5.77938771,117 5,117.77964 5,118.740842 L5,123.351191 C5,124.312646 5.77963953,125.092034 6.7408424,125.092034 L28.0970729,125.092034 C29.0585276,125.092034 29.8379153,124.312394 29.8379153,123.351191 L29.8379153,118.740842 C29.8379153,117.77964 29.0582757,117 28.0970729,117 Z" id="Shape" fill="#C7C5CB" fill-rule="nonzero"></path>
                    <path d="M361.248754,117.113139 L339.892272,117.113139 C338.930817,117.113139 338.15143,117.892778 338.15143,118.853981 L338.15143,123.46433 C338.15143,124.425785 338.931069,125.205173 339.892272,125.205173 L361.248754,125.205173 C362.210209,125.205173 362.989597,124.425533 362.989597,123.46433 L362.989597,118.853981 C362.989849,117.892778 362.210461,117.113139 361.248754,117.113139 Z" id="Shape" fill="#C7C5CB" fill-rule="nonzero"></path>
                    <mask id="mask-3" fill="white">
                        <use xlink:href="#path-2"></use>
                    </mask>
                    <use id="Shape" fill="#FEA921" fill-rule="nonzero" xlink:href="#path-2"></use>
                    <g id="Group" mask="url(#mask-3)" fill-rule="nonzero" fill="#F2F2F2">
                        <g transform="translate(-29.000000, 10.324684)" id="Shape">
                            <polygon points="335.686075 0.133465423 320.164046 0.133465423 295.460352 71.5795211 310.98238 71.5795211"></polygon>
                            <polygon points="368.669914 0.133465423 353.147885 0.133465423 328.444191 71.5795211 343.966219 71.5795211"></polygon>
                            <polygon points="270.225723 0 254.703694 0 230 71.4460557 245.522029 71.4460557"></polygon>
                            <polygon points="303.225723 0 287.703694 0 263 71.4460557 278.522029 71.4460557"></polygon>
                            <polygon points="205.225723 0 189.703694 0 165 71.4460557 180.522029 71.4460557"></polygon>
                            <polygon points="238.225723 0 222.703694 0 198 71.4460557 213.522029 71.4460557"></polygon>
                            <polygon points="139.225723 0 123.703694 0 99 71.4460557 114.522029 71.4460557"></polygon>
                            <polygon points="172.225723 0 156.703694 0 132 71.4460557 147.522029 71.4460557"></polygon>
                            <polygon points="106.225723 0 90.7036944 0 66 71.4460557 81.5220287 71.4460557"></polygon>
                            <polygon points="40.2257231 0 24.7036944 0 0 71.4460557 15.5220287 71.4460557"></polygon>
                            <polygon points="73.2257231 0 57.7036944 0 33 71.4460557 48.5220287 71.4460557"></polygon>
                            <path d="M394.932635,19.5730821 L394.932635,3.10747797 C394.932635,1.4650978 393.601255,0.133465423 391.958623,0.133465423 L386.131976,0.133465423 L361.428281,71.5795211 L376.95031,71.5795211 L394.932635,19.5730821 Z"></path>
                        </g>
                    </g>
                </g>
            </g>
        </g>
    </g>
</svg>