<?xml version="1.0" encoding="UTF-8" standalone="no"?>
<svg width="224px" height="120px" viewBox="0 0 224 120" version="1.1" xmlns="http://www.w3.org/2000/svg" xmlns:xlink="http://www.w3.org/1999/xlink">
    <!-- Generator: Sketch 45.2 (43514) - http://www.bohemiancoding.com/sketch -->
    <title>Group Copy</title>
    <desc>Created with Sketch.</desc>
    <defs></defs>
    <g id="Page-1" stroke="none" stroke-width="1" fill="none" fill-rule="evenodd">
        <g id="unpublished" transform="translate(-608.000000, -399.000000)" fill-rule="nonzero" fill="#DEE2E6">
            <g id="Group-Copy" transform="translate(608.000000, 399.000000)">
                <path d="M66.5474882,17.2754964 C45.0458765,17.2754964 27.3070469,33.4017052 24.6193454,54.2582685 L2.36517729,54.2582685 L2.36517729,54.2582685 C2.36517729,54.2582685 2.36517729,54.2582685 2.25766923,54.2582685 L1.61262088,54.2582685 L1.61262088,54.3657766 C0.430032234,54.7958088 0,56.0859055 0,59.7411795 C0,63.6114696 0.430032234,64.6865502 1.61262088,64.9015663 L1.61262088,65.0090744 L24.6193454,65.0090744 C27.3070469,85.8656377 45.0458765,101.991846 66.5474882,101.991846 C89.8767369,101.991846 108.905663,83.0704282 108.905663,59.6336715 C108.798155,36.3044228 89.8767369,17.2754964 66.5474882,17.2754964 Z M66.5474882,91.2410406 C49.1311827,91.2410406 34.940119,77.0499769 34.940119,59.6336715 C34.940119,42.217366 49.1311827,28.0263023 66.5474882,28.0263023 C83.9637937,28.0263023 98.1548574,42.217366 98.1548574,59.6336715 C98.0473493,77.0499769 83.9637937,91.2410406 66.5474882,91.2410406 Z" id="Shape"></path>
                <path d="M223.446877,59.5604215 C223.446877,55.797579 222.909328,55.0450105 221.081662,55.0450105 L221.081662,55.0450105 L193.559156,55.0450105 L193.451647,53.9699127 C190.548882,23.5446432 165.606612,0.537548931 135.181343,0 L135.181343,0 C135.181343,0 135.181343,0 135.073833,0 C135.073833,0 134.966323,0 134.966323,0 L134.966323,0 C133.246166,0.107509786 132.708617,1.18260765 132.708617,4.73043059 C132.708617,8.49327311 133.246166,9.13833182 134.966323,9.24584161 L134.966323,9.24584161 C162.381318,9.89090033 184.420825,32.2529358 184.420825,59.6679313 C184.420825,87.1904366 162.273809,109.552472 134.858813,110.090021 L134.858813,110.090021 C133.138657,110.197531 132.601108,111.272629 132.601108,114.820452 C132.601108,118.583294 133.138657,119.228353 134.858813,119.335863 L134.858813,119.335863 C165.391592,118.905823 190.548882,95.7912195 193.344137,65.2584402 L193.451647,64.1833423 L220.974152,64.1833423 L220.974152,64.1833423 C222.909328,64.2908521 223.446877,63.2157543 223.446877,59.5604215 Z" id="Shape"></path>
            </g>
        </g>
    </g>
</svg>