<?xml version="1.0" encoding="UTF-8" standalone="no"?>
<svg width="505px" height="505px" viewBox="0 0 505 505" version="1.1" xmlns="http://www.w3.org/2000/svg" xmlns:xlink="http://www.w3.org/1999/xlink">
    <!-- Generator: Sketch 47 (45396) - http://www.bohemiancoding.com/sketch -->
    <title>search</title>
    <desc>Created with Sketch.</desc>
    <defs></defs>
    <g id="Page-1" stroke="none" stroke-width="1" fill="none" fill-rule="evenodd">
        <g id="Artboard" transform="translate(-661.000000, -220.000000)" fill-rule="nonzero">
            <g id="search" transform="translate(913.500000, 472.500000) scale(-1, 1) translate(-913.500000, -472.500000) translate(661.000000, 220.000000)">
                <path d="M495.065,450.956 L396.603,352.494 C397.391,349.343 397.391,345.799 397.391,342.254 C397.391,311.928 372.579,287.116 342.253,287.116 C311.927,287.116 287.115,311.928 287.115,342.254 C287.115,372.58 311.927,397.392 342.253,397.392 C345.798,397.392 349.342,396.998 352.493,396.604 L450.561,495.066 C462.77,507.275 482.463,507.275 494.672,495.066 C507.274,482.858 507.274,463.165 495.065,450.956 Z M495.065,450.956 L396.603,352.494 C397.391,349.343 397.391,345.799 397.391,342.254 C397.391,311.928 372.579,287.116 342.253,287.116 C311.927,287.116 287.115,311.928 287.115,342.254 C287.115,372.58 311.927,397.392 342.253,397.392 C345.798,397.392 349.342,396.998 352.493,396.604 L450.561,495.066 C462.77,507.275 482.463,507.275 494.672,495.066 C507.274,482.858 507.274,463.165 495.065,450.956 Z" id="Shape" fill="#B7854E"></path>
                <path d="M500.185,488.371 C506.88,476.556 505.305,461.196 495.065,450.956 L396.997,352.494 C397.785,349.343 397.785,345.799 397.785,342.254 C397.785,311.928 372.973,287.116 342.647,287.116 C330.438,287.116 319.41,291.054 309.958,297.75 C303.263,307.202 299.324,318.624 299.324,330.833 C299.324,361.159 324.136,385.971 354.462,385.971 C358.007,385.971 361.551,385.577 364.702,385.183 L462.77,483.645 C473.009,493.491 488.369,495.067 500.185,488.371 Z" id="Shape" fill="#CC9357"></path>
                <path d="M204.8,39.387 C296.172,39.387 370.215,113.43 370.215,204.802 C370.215,296.174 296.172,370.218 204.8,370.218 C113.428,370.218 39.385,296.174 39.385,204.802 C39.385,113.43 113.428,39.387 204.8,39.387 Z" id="Shape" fill="#B4E7F8"></path>
                <path d="M204.8,0.002 C91.766,0.002 0,91.768 0,204.802 C0,317.836 91.766,409.602 204.8,409.602 C317.834,409.602 409.6,317.836 409.6,204.802 C409.6,91.768 317.834,0.002 204.8,0.002 Z M204.8,366.279 C115.791,366.279 43.323,293.811 43.323,204.802 C43.323,115.793 115.791,43.325 204.8,43.325 C293.809,43.325 366.277,115.793 366.277,204.802 C366.277,293.811 293.809,366.279 204.8,366.279 Z M204.8,0.002 C91.766,0.002 0,91.768 0,204.802 C0,317.836 91.766,409.602 204.8,409.602 C317.834,409.602 409.6,317.836 409.6,204.802 C409.6,91.768 317.834,0.002 204.8,0.002 Z M204.8,366.279 C115.791,366.279 43.323,293.811 43.323,204.802 C43.323,115.793 115.791,43.325 204.8,43.325 C293.809,43.325 366.277,115.793 366.277,204.802 C366.277,293.811 293.809,366.279 204.8,366.279 Z" id="Shape" fill="#495057"></path>
            </g>
        </g>
    </g>
</svg>