<?xml version="1.0" encoding="UTF-8"?>
<svg width="48px" height="48px" viewBox="0 0 48 48" version="1.1" xmlns="http://www.w3.org/2000/svg" xmlns:xlink="http://www.w3.org/1999/xlink">
    <!-- Generator: Sketch 64 (93537) - https://sketch.com -->
    <title>Icons/CK Editor Copy</title>
    <desc>Created with Sketch.</desc>
    <defs>
        <path d="M26.8918123,6.80180813 L37.2069145,12.8963513 C38.9379553,13.9191141 40,15.780177 40,17.7907854 L40,30.2092146 C40,32.219823 38.9379553,34.0808859 37.2069145,35.1036487 L26.8918123,41.1981919 C25.1079839,42.2521436 22.8920161,42.2521436 21.1081877,41.1981919 L10.7930855,35.1036487 C9.06204473,34.0808859 8,32.219823 8,30.2092146 L8,17.7907854 C8,15.780177 9.06204473,13.9191141 10.7930855,12.8963513 L21.1081877,6.80180813 C22.8920161,5.74785644 25.1079839,5.74785644 26.8918123,6.80180813 Z M30.6711598,28.8728818 L17.3288402,28.8728818 C16.8055598,28.8728818 16.3813573,29.2970844 16.3813573,29.8203648 L16.3813573,29.8203648 L16.3813573,29.8745515 C16.3813573,30.3978319 16.8055598,30.8220345 17.3288402,30.8220345 L17.3288402,30.8220345 L30.6711598,30.8220345 C31.1944402,30.8220345 31.6186427,30.3978319 31.6186427,29.8745515 L31.6186427,29.8745515 L31.6186427,29.8203648 C31.6186427,29.2970844 31.1944402,28.8728818 30.6711598,28.8728818 L30.6711598,28.8728818 Z M26.8618384,23.6101695 L17.3288402,23.6101695 C16.8055598,23.6101695 16.3813573,24.034372 16.3813573,24.5576524 L16.3813573,24.5576524 L16.3813573,24.6118392 C16.3813573,25.1351196 16.8055598,25.5593222 17.3288402,25.5593222 L17.3288402,25.5593222 L26.8618384,25.5593222 C27.3851188,25.5593222 27.8093214,25.1351196 27.8093214,24.6118392 L27.8093214,24.6118392 L27.8093214,24.5576524 C27.8093214,24.034372 27.3851188,23.6101695 26.8618384,23.6101695 L26.8618384,23.6101695 Z M30.6711598,18.1525419 L17.3288402,18.1525419 C16.8055598,18.1525419 16.3813573,18.5767444 16.3813573,19.1000248 L16.3813573,19.1000248 L16.3813573,19.1542116 C16.3813573,19.677492 16.8055598,20.1016946 17.3288402,20.1016946 L17.3288402,20.1016946 L30.6711598,20.1016946 C31.1944402,20.1016946 31.6186427,19.677492 31.6186427,19.1542116 L31.6186427,19.1542116 L31.6186427,19.1000248 C31.6186427,18.5767444 31.1944402,18.1525419 30.6711598,18.1525419 L30.6711598,18.1525419 Z" id="path-1"></path>
    </defs>
    <g id="Icons/CK-Editor-Copy" stroke="none" stroke-width="1" fill="none" fill-rule="evenodd">
        <rect id="Rectangle" fill-rule="nonzero" x="0" y="0" width="48" height="48"></rect>
        <mask id="mask-2" fill="white">
            <use xlink:href="#path-1"></use>
        </mask>
        <use id="Mask" fill="#D8D8D8" xlink:href="#path-1"></use>
        <g id="Colors/Synapse/@synapse-blue" mask="url(#mask-2)" fill="#4381E2">
            <rect id="@synapse-blue" x="0" y="0" width="48" height="48"></rect>
        </g>
    </g>
</svg>